<svg width="500" height="230" viewBox="0 0 500 230" fill="none" xmlns="http://www.w3.org/2000/svg">
<path d="M4 66C4 67.1046 3.10457 68 2 68C0.89543 68 0 67.1046 0 66C0 64.8954 0.89543 64 2 64C3.10457 64 4 64.8954 4 66Z" fill="#E4E4E4"/>
<path d="M20 66C20 67.1046 19.1046 68 18 68C16.8954 68 16 67.1046 16 66C16 64.8954 16.8954 64 18 64C19.1046 64 20 64.8954 20 66Z" fill="#E4E4E4"/>
<path d="M36 66C36 67.1046 35.1046 68 34 68C32.8954 68 32 67.1046 32 66C32 64.8954 32.8954 64 34 64C35.1046 64 36 64.8954 36 66Z" fill="#E4E4E4"/>
<path d="M52 66C52 67.1046 51.1046 68 50 68C48.8954 68 48 67.1046 48 66C48 64.8954 48.8954 64 50 64C51.1046 64 52 64.8954 52 66Z" fill="#E4E4E4"/>
<path d="M68 66C68 67.1046 67.1046 68 66 68C64.8954 68 64 67.1046 64 66C64 64.8954 64.8954 64 66 64C67.1046 64 68 64.8954 68 66Z" fill="#E4E4E4"/>
<path d="M84 66C84 67.1046 83.1046 68 82 68C80.8954 68 80 67.1046 80 66C80 64.8954 80.8954 64 82 64C83.1046 64 84 64.8954 84 66Z" fill="#E4E4E4"/>
<path d="M100 66C100 67.1046 99.1046 68 98 68C96.8954 68 96 67.1046 96 66C96 64.8954 96.8954 64 98 64C99.1046 64 100 64.8954 100 66Z" fill="#E4E4E4"/>
<path d="M116 66C116 67.1046 115.105 68 114 68C112.895 68 112 67.1046 112 66C112 64.8954 112.895 64 114 64C115.105 64 116 64.8954 116 66Z" fill="#E4E4E4"/>
<path d="M132 66C132 67.1046 131.105 68 130 68C128.895 68 128 67.1046 128 66C128 64.8954 128.895 64 130 64C131.105 64 132 64.8954 132 66Z" fill="#E4E4E4"/>
<path d="M148 66C148 67.1046 147.105 68 146 68C144.895 68 144 67.1046 144 66C144 64.8954 144.895 64 146 64C147.105 64 148 64.8954 148 66Z" fill="#E4E4E4"/>
<path d="M164 66C164 67.1046 163.105 68 162 68C160.895 68 160 67.1046 160 66C160 64.8954 160.895 64 162 64C163.105 64 164 64.8954 164 66Z" fill="#E4E4E4"/>
<path d="M180 66C180 67.1046 179.105 68 178 68C176.895 68 176 67.1046 176 66C176 64.8954 176.895 64 178 64C179.105 64 180 64.8954 180 66Z" fill="#E4E4E4"/>
<path d="M196 66C196 67.1046 195.105 68 194 68C192.895 68 192 67.1046 192 66C192 64.8954 192.895 64 194 64C195.105 64 196 64.8954 196 66Z" fill="#E4E4E4"/>
<path d="M212 66C212 67.1046 211.105 68 210 68C208.895 68 208 67.1046 208 66C208 64.8954 208.895 64 210 64C211.105 64 212 64.8954 212 66Z" fill="#E4E4E4"/>
<path d="M228 66C228 67.1046 227.105 68 226 68C224.895 68 224 67.1046 224 66C224 64.8954 224.895 64 226 64C227.105 64 228 64.8954 228 66Z" fill="#E4E4E4"/>
<path d="M244 66C244 67.1046 243.105 68 242 68C240.895 68 240 67.1046 240 66C240 64.8954 240.895 64 242 64C243.105 64 244 64.8954 244 66Z" fill="#E4E4E4"/>
<path d="M260 66C260 67.1046 259.105 68 258 68C256.895 68 256 67.1046 256 66C256 64.8954 256.895 64 258 64C259.105 64 260 64.8954 260 66Z" fill="#E4E4E4"/>
<path d="M276 66C276 67.1046 275.105 68 274 68C272.895 68 272 67.1046 272 66C272 64.8954 272.895 64 274 64C275.105 64 276 64.8954 276 66Z" fill="#E4E4E4"/>
<path d="M292 66C292 67.1046 291.105 68 290 68C288.895 68 288 67.1046 288 66C288 64.8954 288.895 64 290 64C291.105 64 292 64.8954 292 66Z" fill="#E4E4E4"/>
<path d="M308 66C308 67.1046 307.105 68 306 68C304.895 68 304 67.1046 304 66C304 64.8954 304.895 64 306 64C307.105 64 308 64.8954 308 66Z" fill="#E4E4E4"/>
<path d="M324 66C324 67.1046 323.105 68 322 68C320.895 68 320 67.1046 320 66C320 64.8954 320.895 64 322 64C323.105 64 324 64.8954 324 66Z" fill="#E4E4E4"/>
<path d="M340 66C340 67.1046 339.105 68 338 68C336.895 68 336 67.1046 336 66C336 64.8954 336.895 64 338 64C339.105 64 340 64.8954 340 66Z" fill="#E4E4E4"/>
<path d="M356 66C356 67.1046 355.105 68 354 68C352.895 68 352 67.1046 352 66C352 64.8954 352.895 64 354 64C355.105 64 356 64.8954 356 66Z" fill="#E4E4E4"/>
<path d="M372 66C372 67.1046 371.105 68 370 68C368.895 68 368 67.1046 368 66C368 64.8954 368.895 64 370 64C371.105 64 372 64.8954 372 66Z" fill="#E4E4E4"/>
<path d="M388 66C388 67.1046 387.105 68 386 68C384.895 68 384 67.1046 384 66C384 64.8954 384.895 64 386 64C387.105 64 388 64.8954 388 66Z" fill="#E4E4E4"/>
<path d="M404 66C404 67.1046 403.105 68 402 68C400.895 68 400 67.1046 400 66C400 64.8954 400.895 64 402 64C403.105 64 404 64.8954 404 66Z" fill="#E4E4E4"/>
<path d="M420 66C420 67.1046 419.105 68 418 68C416.895 68 416 67.1046 416 66C416 64.8954 416.895 64 418 64C419.105 64 420 64.8954 420 66Z" fill="#E4E4E4"/>
<path d="M436 66C436 67.1046 435.105 68 434 68C432.895 68 432 67.1046 432 66C432 64.8954 432.895 64 434 64C435.105 64 436 64.8954 436 66Z" fill="#E4E4E4"/>
<path d="M452 66C452 67.1046 451.105 68 450 68C448.895 68 448 67.1046 448 66C448 64.8954 448.895 64 450 64C451.105 64 452 64.8954 452 66Z" fill="#E4E4E4"/>
<path d="M468 66C468 67.1046 467.105 68 466 68C464.895 68 464 67.1046 464 66C464 64.8954 464.895 64 466 64C467.105 64 468 64.8954 468 66Z" fill="#E4E4E4"/>
<path d="M484 66C484 67.1046 483.105 68 482 68C480.895 68 480 67.1046 480 66C480 64.8954 480.895 64 482 64C483.105 64 484 64.8954 484 66Z" fill="#E4E4E4"/>
<path d="M500 66C500 67.1046 499.105 68 498 68C496.895 68 496 67.1046 496 66C496 64.8954 496.895 64 498 64C499.105 64 500 64.8954 500 66Z" fill="#E4E4E4"/>
<path d="M4 147C4 148.105 3.10457 149 2 149C0.89543 149 0 148.105 0 147C0 145.895 0.89543 145 2 145C3.10457 145 4 145.895 4 147Z" fill="#E4E4E4"/>
<path d="M20 147C20 148.105 19.1046 149 18 149C16.8954 149 16 148.105 16 147C16 145.895 16.8954 145 18 145C19.1046 145 20 145.895 20 147Z" fill="#E4E4E4"/>
<path d="M36 147C36 148.105 35.1046 149 34 149C32.8954 149 32 148.105 32 147C32 145.895 32.8954 145 34 145C35.1046 145 36 145.895 36 147Z" fill="#E4E4E4"/>
<path d="M52 147C52 148.105 51.1046 149 50 149C48.8954 149 48 148.105 48 147C48 145.895 48.8954 145 50 145C51.1046 145 52 145.895 52 147Z" fill="#E4E4E4"/>
<path d="M68 147C68 148.105 67.1046 149 66 149C64.8954 149 64 148.105 64 147C64 145.895 64.8954 145 66 145C67.1046 145 68 145.895 68 147Z" fill="#E4E4E4"/>
<path d="M84 147C84 148.105 83.1046 149 82 149C80.8954 149 80 148.105 80 147C80 145.895 80.8954 145 82 145C83.1046 145 84 145.895 84 147Z" fill="#E4E4E4"/>
<path d="M100 147C100 148.105 99.1046 149 98 149C96.8954 149 96 148.105 96 147C96 145.895 96.8954 145 98 145C99.1046 145 100 145.895 100 147Z" fill="#E4E4E4"/>
<path d="M116 147C116 148.105 115.105 149 114 149C112.895 149 112 148.105 112 147C112 145.895 112.895 145 114 145C115.105 145 116 145.895 116 147Z" fill="#E4E4E4"/>
<path d="M132 147C132 148.105 131.105 149 130 149C128.895 149 128 148.105 128 147C128 145.895 128.895 145 130 145C131.105 145 132 145.895 132 147Z" fill="#E4E4E4"/>
<path d="M148 147C148 148.105 147.105 149 146 149C144.895 149 144 148.105 144 147C144 145.895 144.895 145 146 145C147.105 145 148 145.895 148 147Z" fill="#E4E4E4"/>
<path d="M164 147C164 148.105 163.105 149 162 149C160.895 149 160 148.105 160 147C160 145.895 160.895 145 162 145C163.105 145 164 145.895 164 147Z" fill="#E4E4E4"/>
<path d="M180 147C180 148.105 179.105 149 178 149C176.895 149 176 148.105 176 147C176 145.895 176.895 145 178 145C179.105 145 180 145.895 180 147Z" fill="#E4E4E4"/>
<path d="M196 147C196 148.105 195.105 149 194 149C192.895 149 192 148.105 192 147C192 145.895 192.895 145 194 145C195.105 145 196 145.895 196 147Z" fill="#E4E4E4"/>
<path d="M212 147C212 148.105 211.105 149 210 149C208.895 149 208 148.105 208 147C208 145.895 208.895 145 210 145C211.105 145 212 145.895 212 147Z" fill="#E4E4E4"/>
<path d="M228 147C228 148.105 227.105 149 226 149C224.895 149 224 148.105 224 147C224 145.895 224.895 145 226 145C227.105 145 228 145.895 228 147Z" fill="#E4E4E4"/>
<path d="M244 147C244 148.105 243.105 149 242 149C240.895 149 240 148.105 240 147C240 145.895 240.895 145 242 145C243.105 145 244 145.895 244 147Z" fill="#E4E4E4"/>
<path d="M260 147C260 148.105 259.105 149 258 149C256.895 149 256 148.105 256 147C256 145.895 256.895 145 258 145C259.105 145 260 145.895 260 147Z" fill="#E4E4E4"/>
<path d="M276 147C276 148.105 275.105 149 274 149C272.895 149 272 148.105 272 147C272 145.895 272.895 145 274 145C275.105 145 276 145.895 276 147Z" fill="#E4E4E4"/>
<path d="M292 147C292 148.105 291.105 149 290 149C288.895 149 288 148.105 288 147C288 145.895 288.895 145 290 145C291.105 145 292 145.895 292 147Z" fill="#E4E4E4"/>
<path d="M308 147C308 148.105 307.105 149 306 149C304.895 149 304 148.105 304 147C304 145.895 304.895 145 306 145C307.105 145 308 145.895 308 147Z" fill="#E4E4E4"/>
<path d="M324 147C324 148.105 323.105 149 322 149C320.895 149 320 148.105 320 147C320 145.895 320.895 145 322 145C323.105 145 324 145.895 324 147Z" fill="#E4E4E4"/>
<path d="M340 147C340 148.105 339.105 149 338 149C336.895 149 336 148.105 336 147C336 145.895 336.895 145 338 145C339.105 145 340 145.895 340 147Z" fill="#E4E4E4"/>
<path d="M356 147C356 148.105 355.105 149 354 149C352.895 149 352 148.105 352 147C352 145.895 352.895 145 354 145C355.105 145 356 145.895 356 147Z" fill="#E4E4E4"/>
<path d="M372 147C372 148.105 371.105 149 370 149C368.895 149 368 148.105 368 147C368 145.895 368.895 145 370 145C371.105 145 372 145.895 372 147Z" fill="#E4E4E4"/>
<path d="M388 147C388 148.105 387.105 149 386 149C384.895 149 384 148.105 384 147C384 145.895 384.895 145 386 145C387.105 145 388 145.895 388 147Z" fill="#E4E4E4"/>
<path d="M404 147C404 148.105 403.105 149 402 149C400.895 149 400 148.105 400 147C400 145.895 400.895 145 402 145C403.105 145 404 145.895 404 147Z" fill="#E4E4E4"/>
<path d="M420 147C420 148.105 419.105 149 418 149C416.895 149 416 148.105 416 147C416 145.895 416.895 145 418 145C419.105 145 420 145.895 420 147Z" fill="#E4E4E4"/>
<path d="M436 147C436 148.105 435.105 149 434 149C432.895 149 432 148.105 432 147C432 145.895 432.895 145 434 145C435.105 145 436 145.895 436 147Z" fill="#E4E4E4"/>
<path d="M452 147C452 148.105 451.105 149 450 149C448.895 149 448 148.105 448 147C448 145.895 448.895 145 450 145C451.105 145 452 145.895 452 147Z" fill="#E4E4E4"/>
<path d="M468 147C468 148.105 467.105 149 466 149C464.895 149 464 148.105 464 147C464 145.895 464.895 145 466 145C467.105 145 468 145.895 468 147Z" fill="#E4E4E4"/>
<path d="M484 147C484 148.105 483.105 149 482 149C480.895 149 480 148.105 480 147C480 145.895 480.895 145 482 145C483.105 145 484 145.895 484 147Z" fill="#E4E4E4"/>
<path d="M500 147C500 148.105 499.105 149 498 149C496.895 149 496 148.105 496 147C496 145.895 496.895 145 498 145C499.105 145 500 145.895 500 147Z" fill="#E4E4E4"/>
<path d="M4 228C4 229.105 3.10457 230 2 230C0.89543 230 0 229.105 0 228C0 226.895 0.89543 226 2 226C3.10457 226 4 226.895 4 228Z" fill="#E4E4E4"/>
<path d="M20 228C20 229.105 19.1046 230 18 230C16.8954 230 16 229.105 16 228C16 226.895 16.8954 226 18 226C19.1046 226 20 226.895 20 228Z" fill="#E4E4E4"/>
<path d="M36 228C36 229.105 35.1046 230 34 230C32.8954 230 32 229.105 32 228C32 226.895 32.8954 226 34 226C35.1046 226 36 226.895 36 228Z" fill="#E4E4E4"/>
<path d="M52 228C52 229.105 51.1046 230 50 230C48.8954 230 48 229.105 48 228C48 226.895 48.8954 226 50 226C51.1046 226 52 226.895 52 228Z" fill="#E4E4E4"/>
<path d="M68 228C68 229.105 67.1046 230 66 230C64.8954 230 64 229.105 64 228C64 226.895 64.8954 226 66 226C67.1046 226 68 226.895 68 228Z" fill="#E4E4E4"/>
<path d="M84 228C84 229.105 83.1046 230 82 230C80.8954 230 80 229.105 80 228C80 226.895 80.8954 226 82 226C83.1046 226 84 226.895 84 228Z" fill="#E4E4E4"/>
<path d="M100 228C100 229.105 99.1046 230 98 230C96.8954 230 96 229.105 96 228C96 226.895 96.8954 226 98 226C99.1046 226 100 226.895 100 228Z" fill="#E4E4E4"/>
<path d="M116 228C116 229.105 115.105 230 114 230C112.895 230 112 229.105 112 228C112 226.895 112.895 226 114 226C115.105 226 116 226.895 116 228Z" fill="#E4E4E4"/>
<path d="M132 228C132 229.105 131.105 230 130 230C128.895 230 128 229.105 128 228C128 226.895 128.895 226 130 226C131.105 226 132 226.895 132 228Z" fill="#E4E4E4"/>
<path d="M148 228C148 229.105 147.105 230 146 230C144.895 230 144 229.105 144 228C144 226.895 144.895 226 146 226C147.105 226 148 226.895 148 228Z" fill="#E4E4E4"/>
<path d="M164 228C164 229.105 163.105 230 162 230C160.895 230 160 229.105 160 228C160 226.895 160.895 226 162 226C163.105 226 164 226.895 164 228Z" fill="#E4E4E4"/>
<path d="M180 228C180 229.105 179.105 230 178 230C176.895 230 176 229.105 176 228C176 226.895 176.895 226 178 226C179.105 226 180 226.895 180 228Z" fill="#E4E4E4"/>
<path d="M196 228C196 229.105 195.105 230 194 230C192.895 230 192 229.105 192 228C192 226.895 192.895 226 194 226C195.105 226 196 226.895 196 228Z" fill="#E4E4E4"/>
<path d="M212 228C212 229.105 211.105 230 210 230C208.895 230 208 229.105 208 228C208 226.895 208.895 226 210 226C211.105 226 212 226.895 212 228Z" fill="#E4E4E4"/>
<path d="M228 228C228 229.105 227.105 230 226 230C224.895 230 224 229.105 224 228C224 226.895 224.895 226 226 226C227.105 226 228 226.895 228 228Z" fill="#E4E4E4"/>
<path d="M244 228C244 229.105 243.105 230 242 230C240.895 230 240 229.105 240 228C240 226.895 240.895 226 242 226C243.105 226 244 226.895 244 228Z" fill="#E4E4E4"/>
<path d="M260 228C260 229.105 259.105 230 258 230C256.895 230 256 229.105 256 228C256 226.895 256.895 226 258 226C259.105 226 260 226.895 260 228Z" fill="#E4E4E4"/>
<path d="M276 228C276 229.105 275.105 230 274 230C272.895 230 272 229.105 272 228C272 226.895 272.895 226 274 226C275.105 226 276 226.895 276 228Z" fill="#E4E4E4"/>
<path d="M292 228C292 229.105 291.105 230 290 230C288.895 230 288 229.105 288 228C288 226.895 288.895 226 290 226C291.105 226 292 226.895 292 228Z" fill="#E4E4E4"/>
<path d="M308 228C308 229.105 307.105 230 306 230C304.895 230 304 229.105 304 228C304 226.895 304.895 226 306 226C307.105 226 308 226.895 308 228Z" fill="#E4E4E4"/>
<path d="M324 228C324 229.105 323.105 230 322 230C320.895 230 320 229.105 320 228C320 226.895 320.895 226 322 226C323.105 226 324 226.895 324 228Z" fill="#E4E4E4"/>
<path d="M340 228C340 229.105 339.105 230 338 230C336.895 230 336 229.105 336 228C336 226.895 336.895 226 338 226C339.105 226 340 226.895 340 228Z" fill="#E4E4E4"/>
<path d="M356 228C356 229.105 355.105 230 354 230C352.895 230 352 229.105 352 228C352 226.895 352.895 226 354 226C355.105 226 356 226.895 356 228Z" fill="#E4E4E4"/>
<path d="M372 228C372 229.105 371.105 230 370 230C368.895 230 368 229.105 368 228C368 226.895 368.895 226 370 226C371.105 226 372 226.895 372 228Z" fill="#E4E4E4"/>
<path d="M388 228C388 229.105 387.105 230 386 230C384.895 230 384 229.105 384 228C384 226.895 384.895 226 386 226C387.105 226 388 226.895 388 228Z" fill="#E4E4E4"/>
<path d="M404 228C404 229.105 403.105 230 402 230C400.895 230 400 229.105 400 228C400 226.895 400.895 226 402 226C403.105 226 404 226.895 404 228Z" fill="#E4E4E4"/>
<path d="M420 228C420 229.105 419.105 230 418 230C416.895 230 416 229.105 416 228C416 226.895 416.895 226 418 226C419.105 226 420 226.895 420 228Z" fill="#E4E4E4"/>
<path d="M436 228C436 229.105 435.105 230 434 230C432.895 230 432 229.105 432 228C432 226.895 432.895 226 434 226C435.105 226 436 226.895 436 228Z" fill="#E4E4E4"/>
<path d="M452 228C452 229.105 451.105 230 450 230C448.895 230 448 229.105 448 228C448 226.895 448.895 226 450 226C451.105 226 452 226.895 452 228Z" fill="#E4E4E4"/>
<path d="M468 228C468 229.105 467.105 230 466 230C464.895 230 464 229.105 464 228C464 226.895 464.895 226 466 226C467.105 226 468 226.895 468 228Z" fill="#E4E4E4"/>
<path d="M484 228C484 229.105 483.105 230 482 230C480.895 230 480 229.105 480 228C480 226.895 480.895 226 482 226C483.105 226 484 226.895 484 228Z" fill="#E4E4E4"/>
<path d="M500 228C500 229.105 499.105 230 498 230C496.895 230 496 229.105 496 228C496 226.895 496.895 226 498 226C499.105 226 500 226.895 500 228Z" fill="#E4E4E4"/>
<path d="M4 50C4 51.1046 3.10457 52 2 52C0.89543 52 0 51.1046 0 50C0 48.8954 0.89543 48 2 48C3.10457 48 4 48.8954 4 50Z" fill="#E4E4E4"/>
<path d="M20 50C20 51.1046 19.1046 52 18 52C16.8954 52 16 51.1046 16 50C16 48.8954 16.8954 48 18 48C19.1046 48 20 48.8954 20 50Z" fill="#E4E4E4"/>
<path d="M36 50C36 51.1046 35.1046 52 34 52C32.8954 52 32 51.1046 32 50C32 48.8954 32.8954 48 34 48C35.1046 48 36 48.8954 36 50Z" fill="#E4E4E4"/>
<path d="M52 50C52 51.1046 51.1046 52 50 52C48.8954 52 48 51.1046 48 50C48 48.8954 48.8954 48 50 48C51.1046 48 52 48.8954 52 50Z" fill="#E4E4E4"/>
<path d="M68 50C68 51.1046 67.1046 52 66 52C64.8954 52 64 51.1046 64 50C64 48.8954 64.8954 48 66 48C67.1046 48 68 48.8954 68 50Z" fill="#E4E4E4"/>
<path d="M84 50C84 51.1046 83.1046 52 82 52C80.8954 52 80 51.1046 80 50C80 48.8954 80.8954 48 82 48C83.1046 48 84 48.8954 84 50Z" fill="#E4E4E4"/>
<path d="M100 50C100 51.1046 99.1046 52 98 52C96.8954 52 96 51.1046 96 50C96 48.8954 96.8954 48 98 48C99.1046 48 100 48.8954 100 50Z" fill="#E4E4E4"/>
<path d="M116 50C116 51.1046 115.105 52 114 52C112.895 52 112 51.1046 112 50C112 48.8954 112.895 48 114 48C115.105 48 116 48.8954 116 50Z" fill="#E4E4E4"/>
<path d="M132 50C132 51.1046 131.105 52 130 52C128.895 52 128 51.1046 128 50C128 48.8954 128.895 48 130 48C131.105 48 132 48.8954 132 50Z" fill="#E4E4E4"/>
<path d="M148 50C148 51.1046 147.105 52 146 52C144.895 52 144 51.1046 144 50C144 48.8954 144.895 48 146 48C147.105 48 148 48.8954 148 50Z" fill="#E4E4E4"/>
<path d="M164 50C164 51.1046 163.105 52 162 52C160.895 52 160 51.1046 160 50C160 48.8954 160.895 48 162 48C163.105 48 164 48.8954 164 50Z" fill="#E4E4E4"/>
<path d="M180 50C180 51.1046 179.105 52 178 52C176.895 52 176 51.1046 176 50C176 48.8954 176.895 48 178 48C179.105 48 180 48.8954 180 50Z" fill="#E4E4E4"/>
<path d="M196 50C196 51.1046 195.105 52 194 52C192.895 52 192 51.1046 192 50C192 48.8954 192.895 48 194 48C195.105 48 196 48.8954 196 50Z" fill="#E4E4E4"/>
<path d="M212 50C212 51.1046 211.105 52 210 52C208.895 52 208 51.1046 208 50C208 48.8954 208.895 48 210 48C211.105 48 212 48.8954 212 50Z" fill="#E4E4E4"/>
<path d="M228 50C228 51.1046 227.105 52 226 52C224.895 52 224 51.1046 224 50C224 48.8954 224.895 48 226 48C227.105 48 228 48.8954 228 50Z" fill="#E4E4E4"/>
<path d="M244 50C244 51.1046 243.105 52 242 52C240.895 52 240 51.1046 240 50C240 48.8954 240.895 48 242 48C243.105 48 244 48.8954 244 50Z" fill="#E4E4E4"/>
<path d="M260 50C260 51.1046 259.105 52 258 52C256.895 52 256 51.1046 256 50C256 48.8954 256.895 48 258 48C259.105 48 260 48.8954 260 50Z" fill="#E4E4E4"/>
<path d="M276 50C276 51.1046 275.105 52 274 52C272.895 52 272 51.1046 272 50C272 48.8954 272.895 48 274 48C275.105 48 276 48.8954 276 50Z" fill="#E4E4E4"/>
<path d="M292 50C292 51.1046 291.105 52 290 52C288.895 52 288 51.1046 288 50C288 48.8954 288.895 48 290 48C291.105 48 292 48.8954 292 50Z" fill="#E4E4E4"/>
<path d="M308 50C308 51.1046 307.105 52 306 52C304.895 52 304 51.1046 304 50C304 48.8954 304.895 48 306 48C307.105 48 308 48.8954 308 50Z" fill="#E4E4E4"/>
<path d="M324 50C324 51.1046 323.105 52 322 52C320.895 52 320 51.1046 320 50C320 48.8954 320.895 48 322 48C323.105 48 324 48.8954 324 50Z" fill="#E4E4E4"/>
<path d="M340 50C340 51.1046 339.105 52 338 52C336.895 52 336 51.1046 336 50C336 48.8954 336.895 48 338 48C339.105 48 340 48.8954 340 50Z" fill="#E4E4E4"/>
<path d="M356 50C356 51.1046 355.105 52 354 52C352.895 52 352 51.1046 352 50C352 48.8954 352.895 48 354 48C355.105 48 356 48.8954 356 50Z" fill="#E4E4E4"/>
<path d="M372 50C372 51.1046 371.105 52 370 52C368.895 52 368 51.1046 368 50C368 48.8954 368.895 48 370 48C371.105 48 372 48.8954 372 50Z" fill="#E4E4E4"/>
<path d="M388 50C388 51.1046 387.105 52 386 52C384.895 52 384 51.1046 384 50C384 48.8954 384.895 48 386 48C387.105 48 388 48.8954 388 50Z" fill="#E4E4E4"/>
<path d="M404 50C404 51.1046 403.105 52 402 52C400.895 52 400 51.1046 400 50C400 48.8954 400.895 48 402 48C403.105 48 404 48.8954 404 50Z" fill="#E4E4E4"/>
<path d="M420 50C420 51.1046 419.105 52 418 52C416.895 52 416 51.1046 416 50C416 48.8954 416.895 48 418 48C419.105 48 420 48.8954 420 50Z" fill="#E4E4E4"/>
<path d="M436 50C436 51.1046 435.105 52 434 52C432.895 52 432 51.1046 432 50C432 48.8954 432.895 48 434 48C435.105 48 436 48.8954 436 50Z" fill="#E4E4E4"/>
<path d="M452 50C452 51.1046 451.105 52 450 52C448.895 52 448 51.1046 448 50C448 48.8954 448.895 48 450 48C451.105 48 452 48.8954 452 50Z" fill="#E4E4E4"/>
<path d="M468 50C468 51.1046 467.105 52 466 52C464.895 52 464 51.1046 464 50C464 48.8954 464.895 48 466 48C467.105 48 468 48.8954 468 50Z" fill="#E4E4E4"/>
<path d="M484 50C484 51.1046 483.105 52 482 52C480.895 52 480 51.1046 480 50C480 48.8954 480.895 48 482 48C483.105 48 484 48.8954 484 50Z" fill="#E4E4E4"/>
<path d="M500 50C500 51.1046 499.105 52 498 52C496.895 52 496 51.1046 496 50C496 48.8954 496.895 48 498 48C499.105 48 500 48.8954 500 50Z" fill="#E4E4E4"/>
<path d="M4 131C4 132.105 3.10457 133 2 133C0.89543 133 0 132.105 0 131C0 129.895 0.89543 129 2 129C3.10457 129 4 129.895 4 131Z" fill="#E4E4E4"/>
<path d="M20 131C20 132.105 19.1046 133 18 133C16.8954 133 16 132.105 16 131C16 129.895 16.8954 129 18 129C19.1046 129 20 129.895 20 131Z" fill="#E4E4E4"/>
<path d="M36 131C36 132.105 35.1046 133 34 133C32.8954 133 32 132.105 32 131C32 129.895 32.8954 129 34 129C35.1046 129 36 129.895 36 131Z" fill="#E4E4E4"/>
<path d="M52 131C52 132.105 51.1046 133 50 133C48.8954 133 48 132.105 48 131C48 129.895 48.8954 129 50 129C51.1046 129 52 129.895 52 131Z" fill="#E4E4E4"/>
<path d="M68 131C68 132.105 67.1046 133 66 133C64.8954 133 64 132.105 64 131C64 129.895 64.8954 129 66 129C67.1046 129 68 129.895 68 131Z" fill="#E4E4E4"/>
<path d="M84 131C84 132.105 83.1046 133 82 133C80.8954 133 80 132.105 80 131C80 129.895 80.8954 129 82 129C83.1046 129 84 129.895 84 131Z" fill="#E4E4E4"/>
<path d="M100 131C100 132.105 99.1046 133 98 133C96.8954 133 96 132.105 96 131C96 129.895 96.8954 129 98 129C99.1046 129 100 129.895 100 131Z" fill="#E4E4E4"/>
<path d="M116 131C116 132.105 115.105 133 114 133C112.895 133 112 132.105 112 131C112 129.895 112.895 129 114 129C115.105 129 116 129.895 116 131Z" fill="#E4E4E4"/>
<path d="M132 131C132 132.105 131.105 133 130 133C128.895 133 128 132.105 128 131C128 129.895 128.895 129 130 129C131.105 129 132 129.895 132 131Z" fill="#E4E4E4"/>
<path d="M148 131C148 132.105 147.105 133 146 133C144.895 133 144 132.105 144 131C144 129.895 144.895 129 146 129C147.105 129 148 129.895 148 131Z" fill="#E4E4E4"/>
<path d="M164 131C164 132.105 163.105 133 162 133C160.895 133 160 132.105 160 131C160 129.895 160.895 129 162 129C163.105 129 164 129.895 164 131Z" fill="#E4E4E4"/>
<path d="M180 131C180 132.105 179.105 133 178 133C176.895 133 176 132.105 176 131C176 129.895 176.895 129 178 129C179.105 129 180 129.895 180 131Z" fill="#E4E4E4"/>
<path d="M196 131C196 132.105 195.105 133 194 133C192.895 133 192 132.105 192 131C192 129.895 192.895 129 194 129C195.105 129 196 129.895 196 131Z" fill="#E4E4E4"/>
<path d="M212 131C212 132.105 211.105 133 210 133C208.895 133 208 132.105 208 131C208 129.895 208.895 129 210 129C211.105 129 212 129.895 212 131Z" fill="#E4E4E4"/>
<path d="M228 131C228 132.105 227.105 133 226 133C224.895 133 224 132.105 224 131C224 129.895 224.895 129 226 129C227.105 129 228 129.895 228 131Z" fill="#E4E4E4"/>
<path d="M244 131C244 132.105 243.105 133 242 133C240.895 133 240 132.105 240 131C240 129.895 240.895 129 242 129C243.105 129 244 129.895 244 131Z" fill="#E4E4E4"/>
<path d="M260 131C260 132.105 259.105 133 258 133C256.895 133 256 132.105 256 131C256 129.895 256.895 129 258 129C259.105 129 260 129.895 260 131Z" fill="#E4E4E4"/>
<path d="M276 131C276 132.105 275.105 133 274 133C272.895 133 272 132.105 272 131C272 129.895 272.895 129 274 129C275.105 129 276 129.895 276 131Z" fill="#E4E4E4"/>
<path d="M292 131C292 132.105 291.105 133 290 133C288.895 133 288 132.105 288 131C288 129.895 288.895 129 290 129C291.105 129 292 129.895 292 131Z" fill="#E4E4E4"/>
<path d="M308 131C308 132.105 307.105 133 306 133C304.895 133 304 132.105 304 131C304 129.895 304.895 129 306 129C307.105 129 308 129.895 308 131Z" fill="#E4E4E4"/>
<path d="M324 131C324 132.105 323.105 133 322 133C320.895 133 320 132.105 320 131C320 129.895 320.895 129 322 129C323.105 129 324 129.895 324 131Z" fill="#E4E4E4"/>
<path d="M340 131C340 132.105 339.105 133 338 133C336.895 133 336 132.105 336 131C336 129.895 336.895 129 338 129C339.105 129 340 129.895 340 131Z" fill="#E4E4E4"/>
<path d="M356 131C356 132.105 355.105 133 354 133C352.895 133 352 132.105 352 131C352 129.895 352.895 129 354 129C355.105 129 356 129.895 356 131Z" fill="#E4E4E4"/>
<path d="M372 131C372 132.105 371.105 133 370 133C368.895 133 368 132.105 368 131C368 129.895 368.895 129 370 129C371.105 129 372 129.895 372 131Z" fill="#E4E4E4"/>
<path d="M388 131C388 132.105 387.105 133 386 133C384.895 133 384 132.105 384 131C384 129.895 384.895 129 386 129C387.105 129 388 129.895 388 131Z" fill="#E4E4E4"/>
<path d="M404 131C404 132.105 403.105 133 402 133C400.895 133 400 132.105 400 131C400 129.895 400.895 129 402 129C403.105 129 404 129.895 404 131Z" fill="#E4E4E4"/>
<path d="M420 131C420 132.105 419.105 133 418 133C416.895 133 416 132.105 416 131C416 129.895 416.895 129 418 129C419.105 129 420 129.895 420 131Z" fill="#E4E4E4"/>
<path d="M436 131C436 132.105 435.105 133 434 133C432.895 133 432 132.105 432 131C432 129.895 432.895 129 434 129C435.105 129 436 129.895 436 131Z" fill="#E4E4E4"/>
<path d="M452 131C452 132.105 451.105 133 450 133C448.895 133 448 132.105 448 131C448 129.895 448.895 129 450 129C451.105 129 452 129.895 452 131Z" fill="#E4E4E4"/>
<path d="M468 131C468 132.105 467.105 133 466 133C464.895 133 464 132.105 464 131C464 129.895 464.895 129 466 129C467.105 129 468 129.895 468 131Z" fill="#E4E4E4"/>
<path d="M484 131C484 132.105 483.105 133 482 133C480.895 133 480 132.105 480 131C480 129.895 480.895 129 482 129C483.105 129 484 129.895 484 131Z" fill="#E4E4E4"/>
<path d="M500 131C500 132.105 499.105 133 498 133C496.895 133 496 132.105 496 131C496 129.895 496.895 129 498 129C499.105 129 500 129.895 500 131Z" fill="#E4E4E4"/>
<path d="M4 212C4 213.105 3.10457 214 2 214C0.89543 214 0 213.105 0 212C0 210.895 0.89543 210 2 210C3.10457 210 4 210.895 4 212Z" fill="#E4E4E4"/>
<path d="M20 212C20 213.105 19.1046 214 18 214C16.8954 214 16 213.105 16 212C16 210.895 16.8954 210 18 210C19.1046 210 20 210.895 20 212Z" fill="#E4E4E4"/>
<path d="M36 212C36 213.105 35.1046 214 34 214C32.8954 214 32 213.105 32 212C32 210.895 32.8954 210 34 210C35.1046 210 36 210.895 36 212Z" fill="#E4E4E4"/>
<path d="M52 212C52 213.105 51.1046 214 50 214C48.8954 214 48 213.105 48 212C48 210.895 48.8954 210 50 210C51.1046 210 52 210.895 52 212Z" fill="#E4E4E4"/>
<path d="M68 212C68 213.105 67.1046 214 66 214C64.8954 214 64 213.105 64 212C64 210.895 64.8954 210 66 210C67.1046 210 68 210.895 68 212Z" fill="#E4E4E4"/>
<path d="M84 212C84 213.105 83.1046 214 82 214C80.8954 214 80 213.105 80 212C80 210.895 80.8954 210 82 210C83.1046 210 84 210.895 84 212Z" fill="#E4E4E4"/>
<path d="M100 212C100 213.105 99.1046 214 98 214C96.8954 214 96 213.105 96 212C96 210.895 96.8954 210 98 210C99.1046 210 100 210.895 100 212Z" fill="#E4E4E4"/>
<path d="M116 212C116 213.105 115.105 214 114 214C112.895 214 112 213.105 112 212C112 210.895 112.895 210 114 210C115.105 210 116 210.895 116 212Z" fill="#E4E4E4"/>
<path d="M132 212C132 213.105 131.105 214 130 214C128.895 214 128 213.105 128 212C128 210.895 128.895 210 130 210C131.105 210 132 210.895 132 212Z" fill="#E4E4E4"/>
<path d="M148 212C148 213.105 147.105 214 146 214C144.895 214 144 213.105 144 212C144 210.895 144.895 210 146 210C147.105 210 148 210.895 148 212Z" fill="#E4E4E4"/>
<path d="M164 212C164 213.105 163.105 214 162 214C160.895 214 160 213.105 160 212C160 210.895 160.895 210 162 210C163.105 210 164 210.895 164 212Z" fill="#E4E4E4"/>
<path d="M180 212C180 213.105 179.105 214 178 214C176.895 214 176 213.105 176 212C176 210.895 176.895 210 178 210C179.105 210 180 210.895 180 212Z" fill="#E4E4E4"/>
<path d="M196 212C196 213.105 195.105 214 194 214C192.895 214 192 213.105 192 212C192 210.895 192.895 210 194 210C195.105 210 196 210.895 196 212Z" fill="#E4E4E4"/>
<path d="M212 212C212 213.105 211.105 214 210 214C208.895 214 208 213.105 208 212C208 210.895 208.895 210 210 210C211.105 210 212 210.895 212 212Z" fill="#E4E4E4"/>
<path d="M228 212C228 213.105 227.105 214 226 214C224.895 214 224 213.105 224 212C224 210.895 224.895 210 226 210C227.105 210 228 210.895 228 212Z" fill="#E4E4E4"/>
<path d="M244 212C244 213.105 243.105 214 242 214C240.895 214 240 213.105 240 212C240 210.895 240.895 210 242 210C243.105 210 244 210.895 244 212Z" fill="#E4E4E4"/>
<path d="M260 212C260 213.105 259.105 214 258 214C256.895 214 256 213.105 256 212C256 210.895 256.895 210 258 210C259.105 210 260 210.895 260 212Z" fill="#E4E4E4"/>
<path d="M276 212C276 213.105 275.105 214 274 214C272.895 214 272 213.105 272 212C272 210.895 272.895 210 274 210C275.105 210 276 210.895 276 212Z" fill="#E4E4E4"/>
<path d="M292 212C292 213.105 291.105 214 290 214C288.895 214 288 213.105 288 212C288 210.895 288.895 210 290 210C291.105 210 292 210.895 292 212Z" fill="#E4E4E4"/>
<path d="M308 212C308 213.105 307.105 214 306 214C304.895 214 304 213.105 304 212C304 210.895 304.895 210 306 210C307.105 210 308 210.895 308 212Z" fill="#E4E4E4"/>
<path d="M324 212C324 213.105 323.105 214 322 214C320.895 214 320 213.105 320 212C320 210.895 320.895 210 322 210C323.105 210 324 210.895 324 212Z" fill="#E4E4E4"/>
<path d="M340 212C340 213.105 339.105 214 338 214C336.895 214 336 213.105 336 212C336 210.895 336.895 210 338 210C339.105 210 340 210.895 340 212Z" fill="#E4E4E4"/>
<path d="M356 212C356 213.105 355.105 214 354 214C352.895 214 352 213.105 352 212C352 210.895 352.895 210 354 210C355.105 210 356 210.895 356 212Z" fill="#E4E4E4"/>
<path d="M372 212C372 213.105 371.105 214 370 214C368.895 214 368 213.105 368 212C368 210.895 368.895 210 370 210C371.105 210 372 210.895 372 212Z" fill="#E4E4E4"/>
<path d="M388 212C388 213.105 387.105 214 386 214C384.895 214 384 213.105 384 212C384 210.895 384.895 210 386 210C387.105 210 388 210.895 388 212Z" fill="#E4E4E4"/>
<path d="M404 212C404 213.105 403.105 214 402 214C400.895 214 400 213.105 400 212C400 210.895 400.895 210 402 210C403.105 210 404 210.895 404 212Z" fill="#E4E4E4"/>
<path d="M420 212C420 213.105 419.105 214 418 214C416.895 214 416 213.105 416 212C416 210.895 416.895 210 418 210C419.105 210 420 210.895 420 212Z" fill="#E4E4E4"/>
<path d="M436 212C436 213.105 435.105 214 434 214C432.895 214 432 213.105 432 212C432 210.895 432.895 210 434 210C435.105 210 436 210.895 436 212Z" fill="#E4E4E4"/>
<path d="M452 212C452 213.105 451.105 214 450 214C448.895 214 448 213.105 448 212C448 210.895 448.895 210 450 210C451.105 210 452 210.895 452 212Z" fill="#E4E4E4"/>
<path d="M468 212C468 213.105 467.105 214 466 214C464.895 214 464 213.105 464 212C464 210.895 464.895 210 466 210C467.105 210 468 210.895 468 212Z" fill="#E4E4E4"/>
<path d="M484 212C484 213.105 483.105 214 482 214C480.895 214 480 213.105 480 212C480 210.895 480.895 210 482 210C483.105 210 484 210.895 484 212Z" fill="#E4E4E4"/>
<path d="M500 212C500 213.105 499.105 214 498 214C496.895 214 496 213.105 496 212C496 210.895 496.895 210 498 210C499.105 210 500 210.895 500 212Z" fill="#E4E4E4"/>
<path d="M4 34C4 35.1046 3.10457 36 2 36C0.89543 36 0 35.1046 0 34C0 32.8954 0.89543 32 2 32C3.10457 32 4 32.8954 4 34Z" fill="#E4E4E4"/>
<path d="M20 34C20 35.1046 19.1046 36 18 36C16.8954 36 16 35.1046 16 34C16 32.8954 16.8954 32 18 32C19.1046 32 20 32.8954 20 34Z" fill="#E4E4E4"/>
<path d="M36 34C36 35.1046 35.1046 36 34 36C32.8954 36 32 35.1046 32 34C32 32.8954 32.8954 32 34 32C35.1046 32 36 32.8954 36 34Z" fill="#E4E4E4"/>
<path d="M52 34C52 35.1046 51.1046 36 50 36C48.8954 36 48 35.1046 48 34C48 32.8954 48.8954 32 50 32C51.1046 32 52 32.8954 52 34Z" fill="#E4E4E4"/>
<path d="M68 34C68 35.1046 67.1046 36 66 36C64.8954 36 64 35.1046 64 34C64 32.8954 64.8954 32 66 32C67.1046 32 68 32.8954 68 34Z" fill="#E4E4E4"/>
<path d="M84 34C84 35.1046 83.1046 36 82 36C80.8954 36 80 35.1046 80 34C80 32.8954 80.8954 32 82 32C83.1046 32 84 32.8954 84 34Z" fill="#E4E4E4"/>
<path d="M100 34C100 35.1046 99.1046 36 98 36C96.8954 36 96 35.1046 96 34C96 32.8954 96.8954 32 98 32C99.1046 32 100 32.8954 100 34Z" fill="#E4E4E4"/>
<path d="M116 34C116 35.1046 115.105 36 114 36C112.895 36 112 35.1046 112 34C112 32.8954 112.895 32 114 32C115.105 32 116 32.8954 116 34Z" fill="#E4E4E4"/>
<path d="M132 34C132 35.1046 131.105 36 130 36C128.895 36 128 35.1046 128 34C128 32.8954 128.895 32 130 32C131.105 32 132 32.8954 132 34Z" fill="#E4E4E4"/>
<path d="M148 34C148 35.1046 147.105 36 146 36C144.895 36 144 35.1046 144 34C144 32.8954 144.895 32 146 32C147.105 32 148 32.8954 148 34Z" fill="#E4E4E4"/>
<path d="M164 34C164 35.1046 163.105 36 162 36C160.895 36 160 35.1046 160 34C160 32.8954 160.895 32 162 32C163.105 32 164 32.8954 164 34Z" fill="#E4E4E4"/>
<path d="M180 34C180 35.1046 179.105 36 178 36C176.895 36 176 35.1046 176 34C176 32.8954 176.895 32 178 32C179.105 32 180 32.8954 180 34Z" fill="#E4E4E4"/>
<path d="M196 34C196 35.1046 195.105 36 194 36C192.895 36 192 35.1046 192 34C192 32.8954 192.895 32 194 32C195.105 32 196 32.8954 196 34Z" fill="#E4E4E4"/>
<path d="M212 34C212 35.1046 211.105 36 210 36C208.895 36 208 35.1046 208 34C208 32.8954 208.895 32 210 32C211.105 32 212 32.8954 212 34Z" fill="#E4E4E4"/>
<path d="M228 34C228 35.1046 227.105 36 226 36C224.895 36 224 35.1046 224 34C224 32.8954 224.895 32 226 32C227.105 32 228 32.8954 228 34Z" fill="#E4E4E4"/>
<path d="M244 34C244 35.1046 243.105 36 242 36C240.895 36 240 35.1046 240 34C240 32.8954 240.895 32 242 32C243.105 32 244 32.8954 244 34Z" fill="#E4E4E4"/>
<path d="M260 34C260 35.1046 259.105 36 258 36C256.895 36 256 35.1046 256 34C256 32.8954 256.895 32 258 32C259.105 32 260 32.8954 260 34Z" fill="#E4E4E4"/>
<path d="M276 34C276 35.1046 275.105 36 274 36C272.895 36 272 35.1046 272 34C272 32.8954 272.895 32 274 32C275.105 32 276 32.8954 276 34Z" fill="#E4E4E4"/>
<path d="M292 34C292 35.1046 291.105 36 290 36C288.895 36 288 35.1046 288 34C288 32.8954 288.895 32 290 32C291.105 32 292 32.8954 292 34Z" fill="#E4E4E4"/>
<path d="M308 34C308 35.1046 307.105 36 306 36C304.895 36 304 35.1046 304 34C304 32.8954 304.895 32 306 32C307.105 32 308 32.8954 308 34Z" fill="#E4E4E4"/>
<path d="M324 34C324 35.1046 323.105 36 322 36C320.895 36 320 35.1046 320 34C320 32.8954 320.895 32 322 32C323.105 32 324 32.8954 324 34Z" fill="#E4E4E4"/>
<path d="M340 34C340 35.1046 339.105 36 338 36C336.895 36 336 35.1046 336 34C336 32.8954 336.895 32 338 32C339.105 32 340 32.8954 340 34Z" fill="#E4E4E4"/>
<path d="M356 34C356 35.1046 355.105 36 354 36C352.895 36 352 35.1046 352 34C352 32.8954 352.895 32 354 32C355.105 32 356 32.8954 356 34Z" fill="#E4E4E4"/>
<path d="M372 34C372 35.1046 371.105 36 370 36C368.895 36 368 35.1046 368 34C368 32.8954 368.895 32 370 32C371.105 32 372 32.8954 372 34Z" fill="#E4E4E4"/>
<path d="M388 34C388 35.1046 387.105 36 386 36C384.895 36 384 35.1046 384 34C384 32.8954 384.895 32 386 32C387.105 32 388 32.8954 388 34Z" fill="#E4E4E4"/>
<path d="M404 34C404 35.1046 403.105 36 402 36C400.895 36 400 35.1046 400 34C400 32.8954 400.895 32 402 32C403.105 32 404 32.8954 404 34Z" fill="#E4E4E4"/>
<path d="M420 34C420 35.1046 419.105 36 418 36C416.895 36 416 35.1046 416 34C416 32.8954 416.895 32 418 32C419.105 32 420 32.8954 420 34Z" fill="#E4E4E4"/>
<path d="M436 34C436 35.1046 435.105 36 434 36C432.895 36 432 35.1046 432 34C432 32.8954 432.895 32 434 32C435.105 32 436 32.8954 436 34Z" fill="#E4E4E4"/>
<path d="M452 34C452 35.1046 451.105 36 450 36C448.895 36 448 35.1046 448 34C448 32.8954 448.895 32 450 32C451.105 32 452 32.8954 452 34Z" fill="#E4E4E4"/>
<path d="M468 34C468 35.1046 467.105 36 466 36C464.895 36 464 35.1046 464 34C464 32.8954 464.895 32 466 32C467.105 32 468 32.8954 468 34Z" fill="#E4E4E4"/>
<path d="M484 34C484 35.1046 483.105 36 482 36C480.895 36 480 35.1046 480 34C480 32.8954 480.895 32 482 32C483.105 32 484 32.8954 484 34Z" fill="#E4E4E4"/>
<path d="M500 34C500 35.1046 499.105 36 498 36C496.895 36 496 35.1046 496 34C496 32.8954 496.895 32 498 32C499.105 32 500 32.8954 500 34Z" fill="#E4E4E4"/>
<path d="M4 115C4 116.105 3.10457 117 2 117C0.89543 117 0 116.105 0 115C0 113.895 0.89543 113 2 113C3.10457 113 4 113.895 4 115Z" fill="#E4E4E4"/>
<path d="M20 115C20 116.105 19.1046 117 18 117C16.8954 117 16 116.105 16 115C16 113.895 16.8954 113 18 113C19.1046 113 20 113.895 20 115Z" fill="#E4E4E4"/>
<path d="M36 115C36 116.105 35.1046 117 34 117C32.8954 117 32 116.105 32 115C32 113.895 32.8954 113 34 113C35.1046 113 36 113.895 36 115Z" fill="#E4E4E4"/>
<path d="M52 115C52 116.105 51.1046 117 50 117C48.8954 117 48 116.105 48 115C48 113.895 48.8954 113 50 113C51.1046 113 52 113.895 52 115Z" fill="#E4E4E4"/>
<path d="M68 115C68 116.105 67.1046 117 66 117C64.8954 117 64 116.105 64 115C64 113.895 64.8954 113 66 113C67.1046 113 68 113.895 68 115Z" fill="#E4E4E4"/>
<path d="M84 115C84 116.105 83.1046 117 82 117C80.8954 117 80 116.105 80 115C80 113.895 80.8954 113 82 113C83.1046 113 84 113.895 84 115Z" fill="#E4E4E4"/>
<path d="M100 115C100 116.105 99.1046 117 98 117C96.8954 117 96 116.105 96 115C96 113.895 96.8954 113 98 113C99.1046 113 100 113.895 100 115Z" fill="#E4E4E4"/>
<path d="M116 115C116 116.105 115.105 117 114 117C112.895 117 112 116.105 112 115C112 113.895 112.895 113 114 113C115.105 113 116 113.895 116 115Z" fill="#E4E4E4"/>
<path d="M132 115C132 116.105 131.105 117 130 117C128.895 117 128 116.105 128 115C128 113.895 128.895 113 130 113C131.105 113 132 113.895 132 115Z" fill="#E4E4E4"/>
<path d="M148 115C148 116.105 147.105 117 146 117C144.895 117 144 116.105 144 115C144 113.895 144.895 113 146 113C147.105 113 148 113.895 148 115Z" fill="#E4E4E4"/>
<path d="M164 115C164 116.105 163.105 117 162 117C160.895 117 160 116.105 160 115C160 113.895 160.895 113 162 113C163.105 113 164 113.895 164 115Z" fill="#E4E4E4"/>
<path d="M180 115C180 116.105 179.105 117 178 117C176.895 117 176 116.105 176 115C176 113.895 176.895 113 178 113C179.105 113 180 113.895 180 115Z" fill="#E4E4E4"/>
<path d="M196 115C196 116.105 195.105 117 194 117C192.895 117 192 116.105 192 115C192 113.895 192.895 113 194 113C195.105 113 196 113.895 196 115Z" fill="#E4E4E4"/>
<path d="M212 115C212 116.105 211.105 117 210 117C208.895 117 208 116.105 208 115C208 113.895 208.895 113 210 113C211.105 113 212 113.895 212 115Z" fill="#E4E4E4"/>
<path d="M228 115C228 116.105 227.105 117 226 117C224.895 117 224 116.105 224 115C224 113.895 224.895 113 226 113C227.105 113 228 113.895 228 115Z" fill="#E4E4E4"/>
<path d="M244 115C244 116.105 243.105 117 242 117C240.895 117 240 116.105 240 115C240 113.895 240.895 113 242 113C243.105 113 244 113.895 244 115Z" fill="#E4E4E4"/>
<path d="M260 115C260 116.105 259.105 117 258 117C256.895 117 256 116.105 256 115C256 113.895 256.895 113 258 113C259.105 113 260 113.895 260 115Z" fill="#E4E4E4"/>
<path d="M276 115C276 116.105 275.105 117 274 117C272.895 117 272 116.105 272 115C272 113.895 272.895 113 274 113C275.105 113 276 113.895 276 115Z" fill="#E4E4E4"/>
<path d="M292 115C292 116.105 291.105 117 290 117C288.895 117 288 116.105 288 115C288 113.895 288.895 113 290 113C291.105 113 292 113.895 292 115Z" fill="#E4E4E4"/>
<path d="M308 115C308 116.105 307.105 117 306 117C304.895 117 304 116.105 304 115C304 113.895 304.895 113 306 113C307.105 113 308 113.895 308 115Z" fill="#E4E4E4"/>
<path d="M324 115C324 116.105 323.105 117 322 117C320.895 117 320 116.105 320 115C320 113.895 320.895 113 322 113C323.105 113 324 113.895 324 115Z" fill="#E4E4E4"/>
<path d="M340 115C340 116.105 339.105 117 338 117C336.895 117 336 116.105 336 115C336 113.895 336.895 113 338 113C339.105 113 340 113.895 340 115Z" fill="#E4E4E4"/>
<path d="M356 115C356 116.105 355.105 117 354 117C352.895 117 352 116.105 352 115C352 113.895 352.895 113 354 113C355.105 113 356 113.895 356 115Z" fill="#E4E4E4"/>
<path d="M372 115C372 116.105 371.105 117 370 117C368.895 117 368 116.105 368 115C368 113.895 368.895 113 370 113C371.105 113 372 113.895 372 115Z" fill="#E4E4E4"/>
<path d="M388 115C388 116.105 387.105 117 386 117C384.895 117 384 116.105 384 115C384 113.895 384.895 113 386 113C387.105 113 388 113.895 388 115Z" fill="#E4E4E4"/>
<path d="M404 115C404 116.105 403.105 117 402 117C400.895 117 400 116.105 400 115C400 113.895 400.895 113 402 113C403.105 113 404 113.895 404 115Z" fill="#E4E4E4"/>
<path d="M420 115C420 116.105 419.105 117 418 117C416.895 117 416 116.105 416 115C416 113.895 416.895 113 418 113C419.105 113 420 113.895 420 115Z" fill="#E4E4E4"/>
<path d="M436 115C436 116.105 435.105 117 434 117C432.895 117 432 116.105 432 115C432 113.895 432.895 113 434 113C435.105 113 436 113.895 436 115Z" fill="#E4E4E4"/>
<path d="M452 115C452 116.105 451.105 117 450 117C448.895 117 448 116.105 448 115C448 113.895 448.895 113 450 113C451.105 113 452 113.895 452 115Z" fill="#E4E4E4"/>
<path d="M468 115C468 116.105 467.105 117 466 117C464.895 117 464 116.105 464 115C464 113.895 464.895 113 466 113C467.105 113 468 113.895 468 115Z" fill="#E4E4E4"/>
<path d="M484 115C484 116.105 483.105 117 482 117C480.895 117 480 116.105 480 115C480 113.895 480.895 113 482 113C483.105 113 484 113.895 484 115Z" fill="#E4E4E4"/>
<path d="M500 115C500 116.105 499.105 117 498 117C496.895 117 496 116.105 496 115C496 113.895 496.895 113 498 113C499.105 113 500 113.895 500 115Z" fill="#E4E4E4"/>
<path d="M4 196C4 197.105 3.10457 198 2 198C0.89543 198 0 197.105 0 196C0 194.895 0.89543 194 2 194C3.10457 194 4 194.895 4 196Z" fill="#E4E4E4"/>
<path d="M20 196C20 197.105 19.1046 198 18 198C16.8954 198 16 197.105 16 196C16 194.895 16.8954 194 18 194C19.1046 194 20 194.895 20 196Z" fill="#E4E4E4"/>
<path d="M36 196C36 197.105 35.1046 198 34 198C32.8954 198 32 197.105 32 196C32 194.895 32.8954 194 34 194C35.1046 194 36 194.895 36 196Z" fill="#E4E4E4"/>
<path d="M52 196C52 197.105 51.1046 198 50 198C48.8954 198 48 197.105 48 196C48 194.895 48.8954 194 50 194C51.1046 194 52 194.895 52 196Z" fill="#E4E4E4"/>
<path d="M68 196C68 197.105 67.1046 198 66 198C64.8954 198 64 197.105 64 196C64 194.895 64.8954 194 66 194C67.1046 194 68 194.895 68 196Z" fill="#E4E4E4"/>
<path d="M84 196C84 197.105 83.1046 198 82 198C80.8954 198 80 197.105 80 196C80 194.895 80.8954 194 82 194C83.1046 194 84 194.895 84 196Z" fill="#E4E4E4"/>
<path d="M100 196C100 197.105 99.1046 198 98 198C96.8954 198 96 197.105 96 196C96 194.895 96.8954 194 98 194C99.1046 194 100 194.895 100 196Z" fill="#E4E4E4"/>
<path d="M116 196C116 197.105 115.105 198 114 198C112.895 198 112 197.105 112 196C112 194.895 112.895 194 114 194C115.105 194 116 194.895 116 196Z" fill="#E4E4E4"/>
<path d="M132 196C132 197.105 131.105 198 130 198C128.895 198 128 197.105 128 196C128 194.895 128.895 194 130 194C131.105 194 132 194.895 132 196Z" fill="#E4E4E4"/>
<path d="M148 196C148 197.105 147.105 198 146 198C144.895 198 144 197.105 144 196C144 194.895 144.895 194 146 194C147.105 194 148 194.895 148 196Z" fill="#E4E4E4"/>
<path d="M164 196C164 197.105 163.105 198 162 198C160.895 198 160 197.105 160 196C160 194.895 160.895 194 162 194C163.105 194 164 194.895 164 196Z" fill="#E4E4E4"/>
<path d="M180 196C180 197.105 179.105 198 178 198C176.895 198 176 197.105 176 196C176 194.895 176.895 194 178 194C179.105 194 180 194.895 180 196Z" fill="#E4E4E4"/>
<path d="M196 196C196 197.105 195.105 198 194 198C192.895 198 192 197.105 192 196C192 194.895 192.895 194 194 194C195.105 194 196 194.895 196 196Z" fill="#E4E4E4"/>
<path d="M212 196C212 197.105 211.105 198 210 198C208.895 198 208 197.105 208 196C208 194.895 208.895 194 210 194C211.105 194 212 194.895 212 196Z" fill="#E4E4E4"/>
<path d="M228 196C228 197.105 227.105 198 226 198C224.895 198 224 197.105 224 196C224 194.895 224.895 194 226 194C227.105 194 228 194.895 228 196Z" fill="#E4E4E4"/>
<path d="M244 196C244 197.105 243.105 198 242 198C240.895 198 240 197.105 240 196C240 194.895 240.895 194 242 194C243.105 194 244 194.895 244 196Z" fill="#E4E4E4"/>
<path d="M260 196C260 197.105 259.105 198 258 198C256.895 198 256 197.105 256 196C256 194.895 256.895 194 258 194C259.105 194 260 194.895 260 196Z" fill="#E4E4E4"/>
<path d="M276 196C276 197.105 275.105 198 274 198C272.895 198 272 197.105 272 196C272 194.895 272.895 194 274 194C275.105 194 276 194.895 276 196Z" fill="#E4E4E4"/>
<path d="M292 196C292 197.105 291.105 198 290 198C288.895 198 288 197.105 288 196C288 194.895 288.895 194 290 194C291.105 194 292 194.895 292 196Z" fill="#E4E4E4"/>
<path d="M308 196C308 197.105 307.105 198 306 198C304.895 198 304 197.105 304 196C304 194.895 304.895 194 306 194C307.105 194 308 194.895 308 196Z" fill="#E4E4E4"/>
<path d="M324 196C324 197.105 323.105 198 322 198C320.895 198 320 197.105 320 196C320 194.895 320.895 194 322 194C323.105 194 324 194.895 324 196Z" fill="#E4E4E4"/>
<path d="M340 196C340 197.105 339.105 198 338 198C336.895 198 336 197.105 336 196C336 194.895 336.895 194 338 194C339.105 194 340 194.895 340 196Z" fill="#E4E4E4"/>
<path d="M356 196C356 197.105 355.105 198 354 198C352.895 198 352 197.105 352 196C352 194.895 352.895 194 354 194C355.105 194 356 194.895 356 196Z" fill="#E4E4E4"/>
<path d="M372 196C372 197.105 371.105 198 370 198C368.895 198 368 197.105 368 196C368 194.895 368.895 194 370 194C371.105 194 372 194.895 372 196Z" fill="#E4E4E4"/>
<path d="M388 196C388 197.105 387.105 198 386 198C384.895 198 384 197.105 384 196C384 194.895 384.895 194 386 194C387.105 194 388 194.895 388 196Z" fill="#E4E4E4"/>
<path d="M404 196C404 197.105 403.105 198 402 198C400.895 198 400 197.105 400 196C400 194.895 400.895 194 402 194C403.105 194 404 194.895 404 196Z" fill="#E4E4E4"/>
<path d="M420 196C420 197.105 419.105 198 418 198C416.895 198 416 197.105 416 196C416 194.895 416.895 194 418 194C419.105 194 420 194.895 420 196Z" fill="#E4E4E4"/>
<path d="M436 196C436 197.105 435.105 198 434 198C432.895 198 432 197.105 432 196C432 194.895 432.895 194 434 194C435.105 194 436 194.895 436 196Z" fill="#E4E4E4"/>
<path d="M452 196C452 197.105 451.105 198 450 198C448.895 198 448 197.105 448 196C448 194.895 448.895 194 450 194C451.105 194 452 194.895 452 196Z" fill="#E4E4E4"/>
<path d="M468 196C468 197.105 467.105 198 466 198C464.895 198 464 197.105 464 196C464 194.895 464.895 194 466 194C467.105 194 468 194.895 468 196Z" fill="#E4E4E4"/>
<path d="M484 196C484 197.105 483.105 198 482 198C480.895 198 480 197.105 480 196C480 194.895 480.895 194 482 194C483.105 194 484 194.895 484 196Z" fill="#E4E4E4"/>
<path d="M500 196C500 197.105 499.105 198 498 198C496.895 198 496 197.105 496 196C496 194.895 496.895 194 498 194C499.105 194 500 194.895 500 196Z" fill="#E4E4E4"/>
<path d="M4 18C4 19.1046 3.10457 20 2 20C0.89543 20 0 19.1046 0 18C0 16.8954 0.89543 16 2 16C3.10457 16 4 16.8954 4 18Z" fill="#E4E4E4"/>
<path d="M20 18C20 19.1046 19.1046 20 18 20C16.8954 20 16 19.1046 16 18C16 16.8954 16.8954 16 18 16C19.1046 16 20 16.8954 20 18Z" fill="#E4E4E4"/>
<path d="M36 18C36 19.1046 35.1046 20 34 20C32.8954 20 32 19.1046 32 18C32 16.8954 32.8954 16 34 16C35.1046 16 36 16.8954 36 18Z" fill="#E4E4E4"/>
<path d="M52 18C52 19.1046 51.1046 20 50 20C48.8954 20 48 19.1046 48 18C48 16.8954 48.8954 16 50 16C51.1046 16 52 16.8954 52 18Z" fill="#E4E4E4"/>
<path d="M68 18C68 19.1046 67.1046 20 66 20C64.8954 20 64 19.1046 64 18C64 16.8954 64.8954 16 66 16C67.1046 16 68 16.8954 68 18Z" fill="#E4E4E4"/>
<path d="M84 18C84 19.1046 83.1046 20 82 20C80.8954 20 80 19.1046 80 18C80 16.8954 80.8954 16 82 16C83.1046 16 84 16.8954 84 18Z" fill="#E4E4E4"/>
<path d="M100 18C100 19.1046 99.1046 20 98 20C96.8954 20 96 19.1046 96 18C96 16.8954 96.8954 16 98 16C99.1046 16 100 16.8954 100 18Z" fill="#E4E4E4"/>
<path d="M116 18C116 19.1046 115.105 20 114 20C112.895 20 112 19.1046 112 18C112 16.8954 112.895 16 114 16C115.105 16 116 16.8954 116 18Z" fill="#E4E4E4"/>
<path d="M132 18C132 19.1046 131.105 20 130 20C128.895 20 128 19.1046 128 18C128 16.8954 128.895 16 130 16C131.105 16 132 16.8954 132 18Z" fill="#E4E4E4"/>
<path d="M148 18C148 19.1046 147.105 20 146 20C144.895 20 144 19.1046 144 18C144 16.8954 144.895 16 146 16C147.105 16 148 16.8954 148 18Z" fill="#E4E4E4"/>
<path d="M164 18C164 19.1046 163.105 20 162 20C160.895 20 160 19.1046 160 18C160 16.8954 160.895 16 162 16C163.105 16 164 16.8954 164 18Z" fill="#E4E4E4"/>
<path d="M180 18C180 19.1046 179.105 20 178 20C176.895 20 176 19.1046 176 18C176 16.8954 176.895 16 178 16C179.105 16 180 16.8954 180 18Z" fill="#E4E4E4"/>
<path d="M196 18C196 19.1046 195.105 20 194 20C192.895 20 192 19.1046 192 18C192 16.8954 192.895 16 194 16C195.105 16 196 16.8954 196 18Z" fill="#E4E4E4"/>
<path d="M212 18C212 19.1046 211.105 20 210 20C208.895 20 208 19.1046 208 18C208 16.8954 208.895 16 210 16C211.105 16 212 16.8954 212 18Z" fill="#E4E4E4"/>
<path d="M228 18C228 19.1046 227.105 20 226 20C224.895 20 224 19.1046 224 18C224 16.8954 224.895 16 226 16C227.105 16 228 16.8954 228 18Z" fill="#E4E4E4"/>
<path d="M244 18C244 19.1046 243.105 20 242 20C240.895 20 240 19.1046 240 18C240 16.8954 240.895 16 242 16C243.105 16 244 16.8954 244 18Z" fill="#E4E4E4"/>
<path d="M260 18C260 19.1046 259.105 20 258 20C256.895 20 256 19.1046 256 18C256 16.8954 256.895 16 258 16C259.105 16 260 16.8954 260 18Z" fill="#E4E4E4"/>
<path d="M276 18C276 19.1046 275.105 20 274 20C272.895 20 272 19.1046 272 18C272 16.8954 272.895 16 274 16C275.105 16 276 16.8954 276 18Z" fill="#E4E4E4"/>
<path d="M292 18C292 19.1046 291.105 20 290 20C288.895 20 288 19.1046 288 18C288 16.8954 288.895 16 290 16C291.105 16 292 16.8954 292 18Z" fill="#E4E4E4"/>
<path d="M308 18C308 19.1046 307.105 20 306 20C304.895 20 304 19.1046 304 18C304 16.8954 304.895 16 306 16C307.105 16 308 16.8954 308 18Z" fill="#E4E4E4"/>
<path d="M324 18C324 19.1046 323.105 20 322 20C320.895 20 320 19.1046 320 18C320 16.8954 320.895 16 322 16C323.105 16 324 16.8954 324 18Z" fill="#E4E4E4"/>
<path d="M340 18C340 19.1046 339.105 20 338 20C336.895 20 336 19.1046 336 18C336 16.8954 336.895 16 338 16C339.105 16 340 16.8954 340 18Z" fill="#E4E4E4"/>
<path d="M356 18C356 19.1046 355.105 20 354 20C352.895 20 352 19.1046 352 18C352 16.8954 352.895 16 354 16C355.105 16 356 16.8954 356 18Z" fill="#E4E4E4"/>
<path d="M372 18C372 19.1046 371.105 20 370 20C368.895 20 368 19.1046 368 18C368 16.8954 368.895 16 370 16C371.105 16 372 16.8954 372 18Z" fill="#E4E4E4"/>
<path d="M388 18C388 19.1046 387.105 20 386 20C384.895 20 384 19.1046 384 18C384 16.8954 384.895 16 386 16C387.105 16 388 16.8954 388 18Z" fill="#E4E4E4"/>
<path d="M404 18C404 19.1046 403.105 20 402 20C400.895 20 400 19.1046 400 18C400 16.8954 400.895 16 402 16C403.105 16 404 16.8954 404 18Z" fill="#E4E4E4"/>
<path d="M420 18C420 19.1046 419.105 20 418 20C416.895 20 416 19.1046 416 18C416 16.8954 416.895 16 418 16C419.105 16 420 16.8954 420 18Z" fill="#E4E4E4"/>
<path d="M436 18C436 19.1046 435.105 20 434 20C432.895 20 432 19.1046 432 18C432 16.8954 432.895 16 434 16C435.105 16 436 16.8954 436 18Z" fill="#E4E4E4"/>
<path d="M452 18C452 19.1046 451.105 20 450 20C448.895 20 448 19.1046 448 18C448 16.8954 448.895 16 450 16C451.105 16 452 16.8954 452 18Z" fill="#E4E4E4"/>
<path d="M468 18C468 19.1046 467.105 20 466 20C464.895 20 464 19.1046 464 18C464 16.8954 464.895 16 466 16C467.105 16 468 16.8954 468 18Z" fill="#E4E4E4"/>
<path d="M484 18C484 19.1046 483.105 20 482 20C480.895 20 480 19.1046 480 18C480 16.8954 480.895 16 482 16C483.105 16 484 16.8954 484 18Z" fill="#E4E4E4"/>
<path d="M500 18C500 19.1046 499.105 20 498 20C496.895 20 496 19.1046 496 18C496 16.8954 496.895 16 498 16C499.105 16 500 16.8954 500 18Z" fill="#E4E4E4"/>
<path d="M4 99C4 100.105 3.10457 101 2 101C0.89543 101 0 100.105 0 99C0 97.8954 0.89543 97 2 97C3.10457 97 4 97.8954 4 99Z" fill="#E4E4E4"/>
<path d="M20 99C20 100.105 19.1046 101 18 101C16.8954 101 16 100.105 16 99C16 97.8954 16.8954 97 18 97C19.1046 97 20 97.8954 20 99Z" fill="#E4E4E4"/>
<path d="M36 99C36 100.105 35.1046 101 34 101C32.8954 101 32 100.105 32 99C32 97.8954 32.8954 97 34 97C35.1046 97 36 97.8954 36 99Z" fill="#E4E4E4"/>
<path d="M52 99C52 100.105 51.1046 101 50 101C48.8954 101 48 100.105 48 99C48 97.8954 48.8954 97 50 97C51.1046 97 52 97.8954 52 99Z" fill="#E4E4E4"/>
<path d="M68 99C68 100.105 67.1046 101 66 101C64.8954 101 64 100.105 64 99C64 97.8954 64.8954 97 66 97C67.1046 97 68 97.8954 68 99Z" fill="#E4E4E4"/>
<path d="M84 99C84 100.105 83.1046 101 82 101C80.8954 101 80 100.105 80 99C80 97.8954 80.8954 97 82 97C83.1046 97 84 97.8954 84 99Z" fill="#E4E4E4"/>
<path d="M100 99C100 100.105 99.1046 101 98 101C96.8954 101 96 100.105 96 99C96 97.8954 96.8954 97 98 97C99.1046 97 100 97.8954 100 99Z" fill="#E4E4E4"/>
<path d="M116 99C116 100.105 115.105 101 114 101C112.895 101 112 100.105 112 99C112 97.8954 112.895 97 114 97C115.105 97 116 97.8954 116 99Z" fill="#E4E4E4"/>
<path d="M132 99C132 100.105 131.105 101 130 101C128.895 101 128 100.105 128 99C128 97.8954 128.895 97 130 97C131.105 97 132 97.8954 132 99Z" fill="#E4E4E4"/>
<path d="M148 99C148 100.105 147.105 101 146 101C144.895 101 144 100.105 144 99C144 97.8954 144.895 97 146 97C147.105 97 148 97.8954 148 99Z" fill="#E4E4E4"/>
<path d="M164 99C164 100.105 163.105 101 162 101C160.895 101 160 100.105 160 99C160 97.8954 160.895 97 162 97C163.105 97 164 97.8954 164 99Z" fill="#E4E4E4"/>
<path d="M180 99C180 100.105 179.105 101 178 101C176.895 101 176 100.105 176 99C176 97.8954 176.895 97 178 97C179.105 97 180 97.8954 180 99Z" fill="#E4E4E4"/>
<path d="M196 99C196 100.105 195.105 101 194 101C192.895 101 192 100.105 192 99C192 97.8954 192.895 97 194 97C195.105 97 196 97.8954 196 99Z" fill="#E4E4E4"/>
<path d="M212 99C212 100.105 211.105 101 210 101C208.895 101 208 100.105 208 99C208 97.8954 208.895 97 210 97C211.105 97 212 97.8954 212 99Z" fill="#E4E4E4"/>
<path d="M228 99C228 100.105 227.105 101 226 101C224.895 101 224 100.105 224 99C224 97.8954 224.895 97 226 97C227.105 97 228 97.8954 228 99Z" fill="#E4E4E4"/>
<path d="M244 99C244 100.105 243.105 101 242 101C240.895 101 240 100.105 240 99C240 97.8954 240.895 97 242 97C243.105 97 244 97.8954 244 99Z" fill="#E4E4E4"/>
<path d="M260 99C260 100.105 259.105 101 258 101C256.895 101 256 100.105 256 99C256 97.8954 256.895 97 258 97C259.105 97 260 97.8954 260 99Z" fill="#E4E4E4"/>
<path d="M276 99C276 100.105 275.105 101 274 101C272.895 101 272 100.105 272 99C272 97.8954 272.895 97 274 97C275.105 97 276 97.8954 276 99Z" fill="#E4E4E4"/>
<path d="M292 99C292 100.105 291.105 101 290 101C288.895 101 288 100.105 288 99C288 97.8954 288.895 97 290 97C291.105 97 292 97.8954 292 99Z" fill="#E4E4E4"/>
<path d="M308 99C308 100.105 307.105 101 306 101C304.895 101 304 100.105 304 99C304 97.8954 304.895 97 306 97C307.105 97 308 97.8954 308 99Z" fill="#E4E4E4"/>
<path d="M324 99C324 100.105 323.105 101 322 101C320.895 101 320 100.105 320 99C320 97.8954 320.895 97 322 97C323.105 97 324 97.8954 324 99Z" fill="#E4E4E4"/>
<path d="M340 99C340 100.105 339.105 101 338 101C336.895 101 336 100.105 336 99C336 97.8954 336.895 97 338 97C339.105 97 340 97.8954 340 99Z" fill="#E4E4E4"/>
<path d="M356 99C356 100.105 355.105 101 354 101C352.895 101 352 100.105 352 99C352 97.8954 352.895 97 354 97C355.105 97 356 97.8954 356 99Z" fill="#E4E4E4"/>
<path d="M372 99C372 100.105 371.105 101 370 101C368.895 101 368 100.105 368 99C368 97.8954 368.895 97 370 97C371.105 97 372 97.8954 372 99Z" fill="#E4E4E4"/>
<path d="M388 99C388 100.105 387.105 101 386 101C384.895 101 384 100.105 384 99C384 97.8954 384.895 97 386 97C387.105 97 388 97.8954 388 99Z" fill="#E4E4E4"/>
<path d="M404 99C404 100.105 403.105 101 402 101C400.895 101 400 100.105 400 99C400 97.8954 400.895 97 402 97C403.105 97 404 97.8954 404 99Z" fill="#E4E4E4"/>
<path d="M420 99C420 100.105 419.105 101 418 101C416.895 101 416 100.105 416 99C416 97.8954 416.895 97 418 97C419.105 97 420 97.8954 420 99Z" fill="#E4E4E4"/>
<path d="M436 99C436 100.105 435.105 101 434 101C432.895 101 432 100.105 432 99C432 97.8954 432.895 97 434 97C435.105 97 436 97.8954 436 99Z" fill="#E4E4E4"/>
<path d="M452 99C452 100.105 451.105 101 450 101C448.895 101 448 100.105 448 99C448 97.8954 448.895 97 450 97C451.105 97 452 97.8954 452 99Z" fill="#E4E4E4"/>
<path d="M468 99C468 100.105 467.105 101 466 101C464.895 101 464 100.105 464 99C464 97.8954 464.895 97 466 97C467.105 97 468 97.8954 468 99Z" fill="#E4E4E4"/>
<path d="M484 99C484 100.105 483.105 101 482 101C480.895 101 480 100.105 480 99C480 97.8954 480.895 97 482 97C483.105 97 484 97.8954 484 99Z" fill="#E4E4E4"/>
<path d="M500 99C500 100.105 499.105 101 498 101C496.895 101 496 100.105 496 99C496 97.8954 496.895 97 498 97C499.105 97 500 97.8954 500 99Z" fill="#E4E4E4"/>
<path d="M4 180C4 181.105 3.10457 182 2 182C0.89543 182 0 181.105 0 180C0 178.895 0.89543 178 2 178C3.10457 178 4 178.895 4 180Z" fill="#E4E4E4"/>
<path d="M20 180C20 181.105 19.1046 182 18 182C16.8954 182 16 181.105 16 180C16 178.895 16.8954 178 18 178C19.1046 178 20 178.895 20 180Z" fill="#E4E4E4"/>
<path d="M36 180C36 181.105 35.1046 182 34 182C32.8954 182 32 181.105 32 180C32 178.895 32.8954 178 34 178C35.1046 178 36 178.895 36 180Z" fill="#E4E4E4"/>
<path d="M52 180C52 181.105 51.1046 182 50 182C48.8954 182 48 181.105 48 180C48 178.895 48.8954 178 50 178C51.1046 178 52 178.895 52 180Z" fill="#E4E4E4"/>
<path d="M68 180C68 181.105 67.1046 182 66 182C64.8954 182 64 181.105 64 180C64 178.895 64.8954 178 66 178C67.1046 178 68 178.895 68 180Z" fill="#E4E4E4"/>
<path d="M84 180C84 181.105 83.1046 182 82 182C80.8954 182 80 181.105 80 180C80 178.895 80.8954 178 82 178C83.1046 178 84 178.895 84 180Z" fill="#E4E4E4"/>
<path d="M100 180C100 181.105 99.1046 182 98 182C96.8954 182 96 181.105 96 180C96 178.895 96.8954 178 98 178C99.1046 178 100 178.895 100 180Z" fill="#E4E4E4"/>
<path d="M116 180C116 181.105 115.105 182 114 182C112.895 182 112 181.105 112 180C112 178.895 112.895 178 114 178C115.105 178 116 178.895 116 180Z" fill="#E4E4E4"/>
<path d="M132 180C132 181.105 131.105 182 130 182C128.895 182 128 181.105 128 180C128 178.895 128.895 178 130 178C131.105 178 132 178.895 132 180Z" fill="#E4E4E4"/>
<path d="M148 180C148 181.105 147.105 182 146 182C144.895 182 144 181.105 144 180C144 178.895 144.895 178 146 178C147.105 178 148 178.895 148 180Z" fill="#E4E4E4"/>
<path d="M164 180C164 181.105 163.105 182 162 182C160.895 182 160 181.105 160 180C160 178.895 160.895 178 162 178C163.105 178 164 178.895 164 180Z" fill="#E4E4E4"/>
<path d="M180 180C180 181.105 179.105 182 178 182C176.895 182 176 181.105 176 180C176 178.895 176.895 178 178 178C179.105 178 180 178.895 180 180Z" fill="#E4E4E4"/>
<path d="M196 180C196 181.105 195.105 182 194 182C192.895 182 192 181.105 192 180C192 178.895 192.895 178 194 178C195.105 178 196 178.895 196 180Z" fill="#E4E4E4"/>
<path d="M212 180C212 181.105 211.105 182 210 182C208.895 182 208 181.105 208 180C208 178.895 208.895 178 210 178C211.105 178 212 178.895 212 180Z" fill="#E4E4E4"/>
<path d="M228 180C228 181.105 227.105 182 226 182C224.895 182 224 181.105 224 180C224 178.895 224.895 178 226 178C227.105 178 228 178.895 228 180Z" fill="#E4E4E4"/>
<path d="M244 180C244 181.105 243.105 182 242 182C240.895 182 240 181.105 240 180C240 178.895 240.895 178 242 178C243.105 178 244 178.895 244 180Z" fill="#E4E4E4"/>
<path d="M260 180C260 181.105 259.105 182 258 182C256.895 182 256 181.105 256 180C256 178.895 256.895 178 258 178C259.105 178 260 178.895 260 180Z" fill="#E4E4E4"/>
<path d="M276 180C276 181.105 275.105 182 274 182C272.895 182 272 181.105 272 180C272 178.895 272.895 178 274 178C275.105 178 276 178.895 276 180Z" fill="#E4E4E4"/>
<path d="M292 180C292 181.105 291.105 182 290 182C288.895 182 288 181.105 288 180C288 178.895 288.895 178 290 178C291.105 178 292 178.895 292 180Z" fill="#E4E4E4"/>
<path d="M308 180C308 181.105 307.105 182 306 182C304.895 182 304 181.105 304 180C304 178.895 304.895 178 306 178C307.105 178 308 178.895 308 180Z" fill="#E4E4E4"/>
<path d="M324 180C324 181.105 323.105 182 322 182C320.895 182 320 181.105 320 180C320 178.895 320.895 178 322 178C323.105 178 324 178.895 324 180Z" fill="#E4E4E4"/>
<path d="M340 180C340 181.105 339.105 182 338 182C336.895 182 336 181.105 336 180C336 178.895 336.895 178 338 178C339.105 178 340 178.895 340 180Z" fill="#E4E4E4"/>
<path d="M356 180C356 181.105 355.105 182 354 182C352.895 182 352 181.105 352 180C352 178.895 352.895 178 354 178C355.105 178 356 178.895 356 180Z" fill="#E4E4E4"/>
<path d="M372 180C372 181.105 371.105 182 370 182C368.895 182 368 181.105 368 180C368 178.895 368.895 178 370 178C371.105 178 372 178.895 372 180Z" fill="#E4E4E4"/>
<path d="M388 180C388 181.105 387.105 182 386 182C384.895 182 384 181.105 384 180C384 178.895 384.895 178 386 178C387.105 178 388 178.895 388 180Z" fill="#E4E4E4"/>
<path d="M404 180C404 181.105 403.105 182 402 182C400.895 182 400 181.105 400 180C400 178.895 400.895 178 402 178C403.105 178 404 178.895 404 180Z" fill="#E4E4E4"/>
<path d="M420 180C420 181.105 419.105 182 418 182C416.895 182 416 181.105 416 180C416 178.895 416.895 178 418 178C419.105 178 420 178.895 420 180Z" fill="#E4E4E4"/>
<path d="M436 180C436 181.105 435.105 182 434 182C432.895 182 432 181.105 432 180C432 178.895 432.895 178 434 178C435.105 178 436 178.895 436 180Z" fill="#E4E4E4"/>
<path d="M452 180C452 181.105 451.105 182 450 182C448.895 182 448 181.105 448 180C448 178.895 448.895 178 450 178C451.105 178 452 178.895 452 180Z" fill="#E4E4E4"/>
<path d="M468 180C468 181.105 467.105 182 466 182C464.895 182 464 181.105 464 180C464 178.895 464.895 178 466 178C467.105 178 468 178.895 468 180Z" fill="#E4E4E4"/>
<path d="M484 180C484 181.105 483.105 182 482 182C480.895 182 480 181.105 480 180C480 178.895 480.895 178 482 178C483.105 178 484 178.895 484 180Z" fill="#E4E4E4"/>
<path d="M500 180C500 181.105 499.105 182 498 182C496.895 182 496 181.105 496 180C496 178.895 496.895 178 498 178C499.105 178 500 178.895 500 180Z" fill="#E4E4E4"/>
<path d="M4 2C4 3.10457 3.10457 4 2 4C0.89543 4 0 3.10457 0 2C0 0.89543 0.89543 0 2 0C3.10457 0 4 0.89543 4 2Z" fill="#E4E4E4"/>
<path d="M20 2C20 3.10457 19.1046 4 18 4C16.8954 4 16 3.10457 16 2C16 0.89543 16.8954 0 18 0C19.1046 0 20 0.89543 20 2Z" fill="#E4E4E4"/>
<path d="M36 2C36 3.10457 35.1046 4 34 4C32.8954 4 32 3.10457 32 2C32 0.89543 32.8954 0 34 0C35.1046 0 36 0.89543 36 2Z" fill="#E4E4E4"/>
<path d="M52 2C52 3.10457 51.1046 4 50 4C48.8954 4 48 3.10457 48 2C48 0.89543 48.8954 0 50 0C51.1046 0 52 0.89543 52 2Z" fill="#E4E4E4"/>
<path d="M68 2C68 3.10457 67.1046 4 66 4C64.8954 4 64 3.10457 64 2C64 0.89543 64.8954 0 66 0C67.1046 0 68 0.89543 68 2Z" fill="#E4E4E4"/>
<path d="M84 2C84 3.10457 83.1046 4 82 4C80.8954 4 80 3.10457 80 2C80 0.89543 80.8954 0 82 0C83.1046 0 84 0.89543 84 2Z" fill="#E4E4E4"/>
<path d="M100 2C100 3.10457 99.1046 4 98 4C96.8954 4 96 3.10457 96 2C96 0.89543 96.8954 0 98 0C99.1046 0 100 0.89543 100 2Z" fill="#E4E4E4"/>
<path d="M116 2C116 3.10457 115.105 4 114 4C112.895 4 112 3.10457 112 2C112 0.89543 112.895 0 114 0C115.105 0 116 0.89543 116 2Z" fill="#E4E4E4"/>
<path d="M132 2C132 3.10457 131.105 4 130 4C128.895 4 128 3.10457 128 2C128 0.89543 128.895 0 130 0C131.105 0 132 0.89543 132 2Z" fill="#E4E4E4"/>
<path d="M148 2C148 3.10457 147.105 4 146 4C144.895 4 144 3.10457 144 2C144 0.89543 144.895 0 146 0C147.105 0 148 0.89543 148 2Z" fill="#E4E4E4"/>
<path d="M164 2C164 3.10457 163.105 4 162 4C160.895 4 160 3.10457 160 2C160 0.89543 160.895 0 162 0C163.105 0 164 0.89543 164 2Z" fill="#E4E4E4"/>
<path d="M180 2C180 3.10457 179.105 4 178 4C176.895 4 176 3.10457 176 2C176 0.89543 176.895 0 178 0C179.105 0 180 0.89543 180 2Z" fill="#E4E4E4"/>
<path d="M196 2C196 3.10457 195.105 4 194 4C192.895 4 192 3.10457 192 2C192 0.89543 192.895 0 194 0C195.105 0 196 0.89543 196 2Z" fill="#E4E4E4"/>
<path d="M212 2C212 3.10457 211.105 4 210 4C208.895 4 208 3.10457 208 2C208 0.89543 208.895 0 210 0C211.105 0 212 0.89543 212 2Z" fill="#E4E4E4"/>
<path d="M228 2C228 3.10457 227.105 4 226 4C224.895 4 224 3.10457 224 2C224 0.89543 224.895 0 226 0C227.105 0 228 0.89543 228 2Z" fill="#E4E4E4"/>
<path d="M244 2C244 3.10457 243.105 4 242 4C240.895 4 240 3.10457 240 2C240 0.89543 240.895 0 242 0C243.105 0 244 0.89543 244 2Z" fill="#E4E4E4"/>
<path d="M260 2C260 3.10457 259.105 4 258 4C256.895 4 256 3.10457 256 2C256 0.89543 256.895 0 258 0C259.105 0 260 0.89543 260 2Z" fill="#E4E4E4"/>
<path d="M276 2C276 3.10457 275.105 4 274 4C272.895 4 272 3.10457 272 2C272 0.89543 272.895 0 274 0C275.105 0 276 0.89543 276 2Z" fill="#E4E4E4"/>
<path d="M292 2C292 3.10457 291.105 4 290 4C288.895 4 288 3.10457 288 2C288 0.89543 288.895 0 290 0C291.105 0 292 0.89543 292 2Z" fill="#E4E4E4"/>
<path d="M308 2C308 3.10457 307.105 4 306 4C304.895 4 304 3.10457 304 2C304 0.89543 304.895 0 306 0C307.105 0 308 0.89543 308 2Z" fill="#E4E4E4"/>
<path d="M324 2C324 3.10457 323.105 4 322 4C320.895 4 320 3.10457 320 2C320 0.89543 320.895 0 322 0C323.105 0 324 0.89543 324 2Z" fill="#E4E4E4"/>
<path d="M340 2C340 3.10457 339.105 4 338 4C336.895 4 336 3.10457 336 2C336 0.89543 336.895 0 338 0C339.105 0 340 0.89543 340 2Z" fill="#E4E4E4"/>
<path d="M356 2C356 3.10457 355.105 4 354 4C352.895 4 352 3.10457 352 2C352 0.89543 352.895 0 354 0C355.105 0 356 0.89543 356 2Z" fill="#E4E4E4"/>
<path d="M372 2C372 3.10457 371.105 4 370 4C368.895 4 368 3.10457 368 2C368 0.89543 368.895 0 370 0C371.105 0 372 0.89543 372 2Z" fill="#E4E4E4"/>
<path d="M388 2C388 3.10457 387.105 4 386 4C384.895 4 384 3.10457 384 2C384 0.89543 384.895 0 386 0C387.105 0 388 0.89543 388 2Z" fill="#E4E4E4"/>
<path d="M404 2C404 3.10457 403.105 4 402 4C400.895 4 400 3.10457 400 2C400 0.89543 400.895 0 402 0C403.105 0 404 0.89543 404 2Z" fill="#E4E4E4"/>
<path d="M420 2C420 3.10457 419.105 4 418 4C416.895 4 416 3.10457 416 2C416 0.89543 416.895 0 418 0C419.105 0 420 0.89543 420 2Z" fill="#E4E4E4"/>
<path d="M436 2C436 3.10457 435.105 4 434 4C432.895 4 432 3.10457 432 2C432 0.89543 432.895 0 434 0C435.105 0 436 0.89543 436 2Z" fill="#E4E4E4"/>
<path d="M452 2C452 3.10457 451.105 4 450 4C448.895 4 448 3.10457 448 2C448 0.89543 448.895 0 450 0C451.105 0 452 0.89543 452 2Z" fill="#E4E4E4"/>
<path d="M468 2C468 3.10457 467.105 4 466 4C464.895 4 464 3.10457 464 2C464 0.89543 464.895 0 466 0C467.105 0 468 0.89543 468 2Z" fill="#E4E4E4"/>
<path d="M484 2C484 3.10457 483.105 4 482 4C480.895 4 480 3.10457 480 2C480 0.89543 480.895 0 482 0C483.105 0 484 0.89543 484 2Z" fill="#E4E4E4"/>
<path d="M500 2C500 3.10457 499.105 4 498 4C496.895 4 496 3.10457 496 2C496 0.89543 496.895 0 498 0C499.105 0 500 0.89543 500 2Z" fill="#E4E4E4"/>
<path d="M4 83C4 84.1046 3.10457 85 2 85C0.89543 85 0 84.1046 0 83C0 81.8954 0.89543 81 2 81C3.10457 81 4 81.8954 4 83Z" fill="#E4E4E4"/>
<path d="M20 83C20 84.1046 19.1046 85 18 85C16.8954 85 16 84.1046 16 83C16 81.8954 16.8954 81 18 81C19.1046 81 20 81.8954 20 83Z" fill="#E4E4E4"/>
<path d="M36 83C36 84.1046 35.1046 85 34 85C32.8954 85 32 84.1046 32 83C32 81.8954 32.8954 81 34 81C35.1046 81 36 81.8954 36 83Z" fill="#E4E4E4"/>
<path d="M52 83C52 84.1046 51.1046 85 50 85C48.8954 85 48 84.1046 48 83C48 81.8954 48.8954 81 50 81C51.1046 81 52 81.8954 52 83Z" fill="#E4E4E4"/>
<path d="M68 83C68 84.1046 67.1046 85 66 85C64.8954 85 64 84.1046 64 83C64 81.8954 64.8954 81 66 81C67.1046 81 68 81.8954 68 83Z" fill="#E4E4E4"/>
<path d="M84 83C84 84.1046 83.1046 85 82 85C80.8954 85 80 84.1046 80 83C80 81.8954 80.8954 81 82 81C83.1046 81 84 81.8954 84 83Z" fill="#E4E4E4"/>
<path d="M100 83C100 84.1046 99.1046 85 98 85C96.8954 85 96 84.1046 96 83C96 81.8954 96.8954 81 98 81C99.1046 81 100 81.8954 100 83Z" fill="#E4E4E4"/>
<path d="M116 83C116 84.1046 115.105 85 114 85C112.895 85 112 84.1046 112 83C112 81.8954 112.895 81 114 81C115.105 81 116 81.8954 116 83Z" fill="#E4E4E4"/>
<path d="M132 83C132 84.1046 131.105 85 130 85C128.895 85 128 84.1046 128 83C128 81.8954 128.895 81 130 81C131.105 81 132 81.8954 132 83Z" fill="#E4E4E4"/>
<path d="M148 83C148 84.1046 147.105 85 146 85C144.895 85 144 84.1046 144 83C144 81.8954 144.895 81 146 81C147.105 81 148 81.8954 148 83Z" fill="#E4E4E4"/>
<path d="M164 83C164 84.1046 163.105 85 162 85C160.895 85 160 84.1046 160 83C160 81.8954 160.895 81 162 81C163.105 81 164 81.8954 164 83Z" fill="#E4E4E4"/>
<path d="M180 83C180 84.1046 179.105 85 178 85C176.895 85 176 84.1046 176 83C176 81.8954 176.895 81 178 81C179.105 81 180 81.8954 180 83Z" fill="#E4E4E4"/>
<path d="M196 83C196 84.1046 195.105 85 194 85C192.895 85 192 84.1046 192 83C192 81.8954 192.895 81 194 81C195.105 81 196 81.8954 196 83Z" fill="#E4E4E4"/>
<path d="M212 83C212 84.1046 211.105 85 210 85C208.895 85 208 84.1046 208 83C208 81.8954 208.895 81 210 81C211.105 81 212 81.8954 212 83Z" fill="#E4E4E4"/>
<path d="M228 83C228 84.1046 227.105 85 226 85C224.895 85 224 84.1046 224 83C224 81.8954 224.895 81 226 81C227.105 81 228 81.8954 228 83Z" fill="#E4E4E4"/>
<path d="M244 83C244 84.1046 243.105 85 242 85C240.895 85 240 84.1046 240 83C240 81.8954 240.895 81 242 81C243.105 81 244 81.8954 244 83Z" fill="#E4E4E4"/>
<path d="M260 83C260 84.1046 259.105 85 258 85C256.895 85 256 84.1046 256 83C256 81.8954 256.895 81 258 81C259.105 81 260 81.8954 260 83Z" fill="#E4E4E4"/>
<path d="M276 83C276 84.1046 275.105 85 274 85C272.895 85 272 84.1046 272 83C272 81.8954 272.895 81 274 81C275.105 81 276 81.8954 276 83Z" fill="#E4E4E4"/>
<path d="M292 83C292 84.1046 291.105 85 290 85C288.895 85 288 84.1046 288 83C288 81.8954 288.895 81 290 81C291.105 81 292 81.8954 292 83Z" fill="#E4E4E4"/>
<path d="M308 83C308 84.1046 307.105 85 306 85C304.895 85 304 84.1046 304 83C304 81.8954 304.895 81 306 81C307.105 81 308 81.8954 308 83Z" fill="#E4E4E4"/>
<path d="M324 83C324 84.1046 323.105 85 322 85C320.895 85 320 84.1046 320 83C320 81.8954 320.895 81 322 81C323.105 81 324 81.8954 324 83Z" fill="#E4E4E4"/>
<path d="M340 83C340 84.1046 339.105 85 338 85C336.895 85 336 84.1046 336 83C336 81.8954 336.895 81 338 81C339.105 81 340 81.8954 340 83Z" fill="#E4E4E4"/>
<path d="M356 83C356 84.1046 355.105 85 354 85C352.895 85 352 84.1046 352 83C352 81.8954 352.895 81 354 81C355.105 81 356 81.8954 356 83Z" fill="#E4E4E4"/>
<path d="M372 83C372 84.1046 371.105 85 370 85C368.895 85 368 84.1046 368 83C368 81.8954 368.895 81 370 81C371.105 81 372 81.8954 372 83Z" fill="#E4E4E4"/>
<path d="M388 83C388 84.1046 387.105 85 386 85C384.895 85 384 84.1046 384 83C384 81.8954 384.895 81 386 81C387.105 81 388 81.8954 388 83Z" fill="#E4E4E4"/>
<path d="M404 83C404 84.1046 403.105 85 402 85C400.895 85 400 84.1046 400 83C400 81.8954 400.895 81 402 81C403.105 81 404 81.8954 404 83Z" fill="#E4E4E4"/>
<path d="M420 83C420 84.1046 419.105 85 418 85C416.895 85 416 84.1046 416 83C416 81.8954 416.895 81 418 81C419.105 81 420 81.8954 420 83Z" fill="#E4E4E4"/>
<path d="M436 83C436 84.1046 435.105 85 434 85C432.895 85 432 84.1046 432 83C432 81.8954 432.895 81 434 81C435.105 81 436 81.8954 436 83Z" fill="#E4E4E4"/>
<path d="M452 83C452 84.1046 451.105 85 450 85C448.895 85 448 84.1046 448 83C448 81.8954 448.895 81 450 81C451.105 81 452 81.8954 452 83Z" fill="#E4E4E4"/>
<path d="M468 83C468 84.1046 467.105 85 466 85C464.895 85 464 84.1046 464 83C464 81.8954 464.895 81 466 81C467.105 81 468 81.8954 468 83Z" fill="#E4E4E4"/>
<path d="M484 83C484 84.1046 483.105 85 482 85C480.895 85 480 84.1046 480 83C480 81.8954 480.895 81 482 81C483.105 81 484 81.8954 484 83Z" fill="#E4E4E4"/>
<path d="M500 83C500 84.1046 499.105 85 498 85C496.895 85 496 84.1046 496 83C496 81.8954 496.895 81 498 81C499.105 81 500 81.8954 500 83Z" fill="#E4E4E4"/>
<path d="M4 164C4 165.105 3.10457 166 2 166C0.89543 166 0 165.105 0 164C0 162.895 0.89543 162 2 162C3.10457 162 4 162.895 4 164Z" fill="#E4E4E4"/>
<path d="M20 164C20 165.105 19.1046 166 18 166C16.8954 166 16 165.105 16 164C16 162.895 16.8954 162 18 162C19.1046 162 20 162.895 20 164Z" fill="#E4E4E4"/>
<path d="M36 164C36 165.105 35.1046 166 34 166C32.8954 166 32 165.105 32 164C32 162.895 32.8954 162 34 162C35.1046 162 36 162.895 36 164Z" fill="#E4E4E4"/>
<path d="M52 164C52 165.105 51.1046 166 50 166C48.8954 166 48 165.105 48 164C48 162.895 48.8954 162 50 162C51.1046 162 52 162.895 52 164Z" fill="#E4E4E4"/>
<path d="M68 164C68 165.105 67.1046 166 66 166C64.8954 166 64 165.105 64 164C64 162.895 64.8954 162 66 162C67.1046 162 68 162.895 68 164Z" fill="#E4E4E4"/>
<path d="M84 164C84 165.105 83.1046 166 82 166C80.8954 166 80 165.105 80 164C80 162.895 80.8954 162 82 162C83.1046 162 84 162.895 84 164Z" fill="#E4E4E4"/>
<path d="M100 164C100 165.105 99.1046 166 98 166C96.8954 166 96 165.105 96 164C96 162.895 96.8954 162 98 162C99.1046 162 100 162.895 100 164Z" fill="#E4E4E4"/>
<path d="M116 164C116 165.105 115.105 166 114 166C112.895 166 112 165.105 112 164C112 162.895 112.895 162 114 162C115.105 162 116 162.895 116 164Z" fill="#E4E4E4"/>
<path d="M132 164C132 165.105 131.105 166 130 166C128.895 166 128 165.105 128 164C128 162.895 128.895 162 130 162C131.105 162 132 162.895 132 164Z" fill="#E4E4E4"/>
<path d="M148 164C148 165.105 147.105 166 146 166C144.895 166 144 165.105 144 164C144 162.895 144.895 162 146 162C147.105 162 148 162.895 148 164Z" fill="#E4E4E4"/>
<path d="M164 164C164 165.105 163.105 166 162 166C160.895 166 160 165.105 160 164C160 162.895 160.895 162 162 162C163.105 162 164 162.895 164 164Z" fill="#E4E4E4"/>
<path d="M180 164C180 165.105 179.105 166 178 166C176.895 166 176 165.105 176 164C176 162.895 176.895 162 178 162C179.105 162 180 162.895 180 164Z" fill="#E4E4E4"/>
<path d="M196 164C196 165.105 195.105 166 194 166C192.895 166 192 165.105 192 164C192 162.895 192.895 162 194 162C195.105 162 196 162.895 196 164Z" fill="#E4E4E4"/>
<path d="M212 164C212 165.105 211.105 166 210 166C208.895 166 208 165.105 208 164C208 162.895 208.895 162 210 162C211.105 162 212 162.895 212 164Z" fill="#E4E4E4"/>
<path d="M228 164C228 165.105 227.105 166 226 166C224.895 166 224 165.105 224 164C224 162.895 224.895 162 226 162C227.105 162 228 162.895 228 164Z" fill="#E4E4E4"/>
<path d="M244 164C244 165.105 243.105 166 242 166C240.895 166 240 165.105 240 164C240 162.895 240.895 162 242 162C243.105 162 244 162.895 244 164Z" fill="#E4E4E4"/>
<path d="M260 164C260 165.105 259.105 166 258 166C256.895 166 256 165.105 256 164C256 162.895 256.895 162 258 162C259.105 162 260 162.895 260 164Z" fill="#E4E4E4"/>
<path d="M276 164C276 165.105 275.105 166 274 166C272.895 166 272 165.105 272 164C272 162.895 272.895 162 274 162C275.105 162 276 162.895 276 164Z" fill="#E4E4E4"/>
<path d="M292 164C292 165.105 291.105 166 290 166C288.895 166 288 165.105 288 164C288 162.895 288.895 162 290 162C291.105 162 292 162.895 292 164Z" fill="#E4E4E4"/>
<path d="M308 164C308 165.105 307.105 166 306 166C304.895 166 304 165.105 304 164C304 162.895 304.895 162 306 162C307.105 162 308 162.895 308 164Z" fill="#E4E4E4"/>
<path d="M324 164C324 165.105 323.105 166 322 166C320.895 166 320 165.105 320 164C320 162.895 320.895 162 322 162C323.105 162 324 162.895 324 164Z" fill="#E4E4E4"/>
<path d="M340 164C340 165.105 339.105 166 338 166C336.895 166 336 165.105 336 164C336 162.895 336.895 162 338 162C339.105 162 340 162.895 340 164Z" fill="#E4E4E4"/>
<path d="M356 164C356 165.105 355.105 166 354 166C352.895 166 352 165.105 352 164C352 162.895 352.895 162 354 162C355.105 162 356 162.895 356 164Z" fill="#E4E4E4"/>
<path d="M372 164C372 165.105 371.105 166 370 166C368.895 166 368 165.105 368 164C368 162.895 368.895 162 370 162C371.105 162 372 162.895 372 164Z" fill="#E4E4E4"/>
<path d="M388 164C388 165.105 387.105 166 386 166C384.895 166 384 165.105 384 164C384 162.895 384.895 162 386 162C387.105 162 388 162.895 388 164Z" fill="#E4E4E4"/>
<path d="M404 164C404 165.105 403.105 166 402 166C400.895 166 400 165.105 400 164C400 162.895 400.895 162 402 162C403.105 162 404 162.895 404 164Z" fill="#E4E4E4"/>
<path d="M420 164C420 165.105 419.105 166 418 166C416.895 166 416 165.105 416 164C416 162.895 416.895 162 418 162C419.105 162 420 162.895 420 164Z" fill="#E4E4E4"/>
<path d="M436 164C436 165.105 435.105 166 434 166C432.895 166 432 165.105 432 164C432 162.895 432.895 162 434 162C435.105 162 436 162.895 436 164Z" fill="#E4E4E4"/>
<path d="M452 164C452 165.105 451.105 166 450 166C448.895 166 448 165.105 448 164C448 162.895 448.895 162 450 162C451.105 162 452 162.895 452 164Z" fill="#E4E4E4"/>
<path d="M468 164C468 165.105 467.105 166 466 166C464.895 166 464 165.105 464 164C464 162.895 464.895 162 466 162C467.105 162 468 162.895 468 164Z" fill="#E4E4E4"/>
<path d="M484 164C484 165.105 483.105 166 482 166C480.895 166 480 165.105 480 164C480 162.895 480.895 162 482 162C483.105 162 484 162.895 484 164Z" fill="#E4E4E4"/>
<path d="M500 164C500 165.105 499.105 166 498 166C496.895 166 496 165.105 496 164C496 162.895 496.895 162 498 162C499.105 162 500 162.895 500 164Z" fill="#E4E4E4"/>
</svg>
