<?xml version="1.0" encoding="UTF-8"?>
<svg xmlns="http://www.w3.org/2000/svg" width="65" height="72" viewBox="0 0 65 72" fill="none">
  <path d="M3.99806 6.80563C4 7.30672 3.91016 11.8861 3.91016 36.9941C3.91016 65.4839 3.92662 66.9191 4.20645 67.1996C4.48628 67.48 5.62206 67.4965 26.5106 67.5295C44.0412 67.5625 48.6008 67.5295 48.93 67.3646L49.3415 67.1501L49.3909 64.2302L49.4238 61.3103H56.7158C64.8474 61.3103 64.798 61.3103 64.6992 60.271C64.6334 59.6276 64.1231 59.3307 63.0532 59.3307H62.2631V46.1333C62.2631 33.1504 62.2631 32.9359 61.9339 32.606C61.6211 32.2925 61.3907 32.276 58.5594 32.276C55.7282 32.276 55.4978 32.2925 55.185 32.606C54.8558 32.9359 54.8558 33.1504 54.8558 46.1333V59.3307H53.0451H51.2345L51.2015 48.7563C51.1521 38.5118 51.1357 38.1819 50.8394 37.9509C50.3456 37.6045 44.6996 37.621 44.1893 37.9839L43.8272 38.2314V48.7893V59.3307H41.9342H40.0412V55.3055C40.0412 51.3132 40.0412 51.2638 39.6791 51.0163C39.1359 50.6369 33.7039 50.6369 33.1607 51.0163C32.7986 51.2638 32.7986 51.3132 32.7986 55.3055V59.3307H31.1525H29.5064V53.2599V47.2056L31.5805 46.4137L33.6545 45.6054L34.0825 46.0178C34.7738 46.6612 35.5146 46.9581 36.4199 46.9581C38.2799 46.9581 39.8766 45.3579 39.8766 43.4773C39.8766 43.2464 39.7614 42.7185 39.6133 42.2896L39.3499 41.5142L41.4404 39.1057C42.5762 37.7695 44.0905 36.0373 44.7654 35.229C45.8024 34.0247 46.0658 33.8102 46.3127 33.9257C46.4773 34.0247 47.0041 34.0907 47.4979 34.0907C49.3415 34.0907 50.7406 32.7874 50.8723 30.9563L50.9382 29.9665L53.4896 28.6468L56.0245 27.3105L56.5183 27.7229C57.7858 28.7952 59.5471 28.6798 60.8804 27.459C62.51 25.9578 62.3125 23.4338 60.4853 22.1306C59.8434 21.6852 59.6294 21.6357 58.5594 21.6357C57.4895 21.6357 57.2755 21.6852 56.6335 22.1306C55.7117 22.7904 55.1521 23.8132 55.1356 24.869L55.1192 25.6939L52.5842 27.0136C49.1604 28.8282 49.4238 29.1417 49.4238 23.1369V18.5013L43.4486 12.513L37.5 6.80563H21C5 6.80563 4.5 6.80563 3.99806 6.80563ZM36.0907 13.7997C36.0907 19.0292 36.1071 19.2601 36.4199 19.5736C36.7326 19.887 36.9631 19.9035 42.1811 19.9035H47.6131V23.5328V27.1456L47.0041 27.261C44.8313 27.6405 43.5803 29.7191 44.2387 31.8306L44.5185 32.738L41.2922 36.4497C39.5145 38.4953 38.0001 40.211 37.9343 40.2605C37.852 40.3099 37.5063 40.2605 37.1442 40.178C36.2717 39.9305 35.0043 40.2275 34.2471 40.8543C33.5393 41.4482 32.9632 42.5535 32.9632 43.3453C32.9632 43.9062 32.9632 43.9062 31.3336 44.5166C30.4447 44.863 29.671 45.1435 29.6217 45.1435C29.5558 45.1435 29.5064 40.5409 29.5064 34.9155C29.5064 24.902 29.5064 24.6876 29.1772 24.3576C28.7822 23.9617 28.5517 23.9452 28.0579 24.2916L27.6958 24.5391V42.669V60.7989L28.0579 61.0463C28.3871 61.2773 29.6052 61.3103 38.0166 61.3103H47.6131V63.4548V65.5994H26.7081H5.80313V36.9776V8.35581H20.9469H36.0907V13.7997ZM42.0988 13.7997L46.214 17.9239H42.0494H37.9013V13.7997C37.9013 11.5232 37.9178 9.67555 37.9507 9.67555C37.9672 9.67555 39.8437 11.5232 42.0988 13.7997ZM59.6458 23.8462C60.2878 24.4896 60.3207 25.4464 59.6952 26.0568C59.0039 26.7496 58.0985 26.7496 57.4072 26.0568C56.4689 25.1 57.2097 23.3678 58.5594 23.3678C59.0039 23.3678 59.2837 23.4998 59.6458 23.8462ZM48.5514 29.5376C48.93 29.8675 49.0123 30.0655 49.0123 30.7089C49.0123 31.3522 48.93 31.5502 48.5514 31.8801C47.3333 32.9359 45.4403 31.7317 45.9671 30.2305C46.3456 29.1252 47.6625 28.7787 48.5514 29.5376ZM60.4195 46.7437L60.4524 59.3307H58.5594H56.6665V46.8261C56.6665 39.947 56.7158 34.2556 56.7817 34.1897C56.8475 34.1402 57.6706 34.1072 58.6253 34.1237L60.3701 34.1732L60.4195 46.7437ZM49.2592 49.4326V59.3307H47.4485H45.6378V49.4326V39.5346H47.4485H49.2592V49.4326ZM36.996 42.0751C38.1318 42.5535 38.3458 43.9227 37.3746 44.7311C36.5845 45.3909 35.5804 45.2095 35.0372 44.2857C34.5434 43.4608 34.9878 42.306 35.9261 41.9596C36.3047 41.8276 36.387 41.8276 36.996 42.0751ZM38.2306 56.0313V59.3307H36.4199H34.6092V56.0313V52.732H36.4199H38.2306V56.0313Z" fill="#23395D"></path>
  <path d="M10.0743 24.2911C9.67924 24.5551 9.6134 25.017 9.87677 25.5284C10.0414 25.8253 10.2883 25.8418 16.5927 25.8418C21.4651 25.8418 23.1934 25.7923 23.3416 25.6438C23.6708 25.3139 23.572 24.5716 23.177 24.2911C22.8642 24.0602 21.9589 24.0272 16.6256 24.0272C11.2924 24.0272 10.3871 24.0602 10.0743 24.2911Z" fill="#E63246"></path>
  <path d="M10.077 30.7249C9.84653 30.8899 9.71484 31.1538 9.71484 31.4507C9.71484 32.358 10.0605 32.4404 13.83 32.4404C17.5995 32.4404 17.9452 32.358 17.9452 31.4507C17.9452 30.5435 17.5995 30.461 13.83 30.461C11.0317 30.461 10.3897 30.5105 10.077 30.7249Z" fill="#E63246"></path>
  <path d="M9.97618 37.4228C9.63051 37.9177 9.64697 38.1487 10.042 38.5446C10.3548 38.858 10.5852 38.8745 15.688 38.8745C20.2311 38.8745 21.0542 38.8415 21.3669 38.6106C21.762 38.3466 21.8278 37.8847 21.5645 37.3733C21.3999 37.0764 21.1529 37.0599 15.8032 37.0599C10.2231 37.0599 10.2231 37.0599 9.97618 37.4228Z" fill="#E63246"></path>
  <path d="M9.9278 43.9221C9.68089 44.318 9.68089 44.4005 9.89488 44.7964L10.1418 45.2253L16.5779 45.2748C23.5901 45.3078 23.5407 45.3243 23.5407 44.4005C23.5407 43.4931 23.5737 43.4931 16.6273 43.4931H10.2076L9.9278 43.9221Z" fill="#E63246"></path>
  <path d="M10.042 50.2575C9.64697 50.6534 9.63051 50.8844 9.97618 51.3793C10.2231 51.7422 10.256 51.7422 14.7991 51.7422C19.0295 51.7422 19.3917 51.7257 19.6386 51.4452C20.0007 51.0328 19.9842 50.6534 19.5892 50.2575C19.2764 49.944 19.046 49.9275 14.8156 49.9275C10.5852 49.9275 10.3548 49.944 10.042 50.2575Z" fill="#E63246"></path>
  <path d="M1 10.3131C0 10.3131 0 10.5991 0 10.5991L0.0329213 39.0229L0 67.4633L0.378594 68.3046C0.938256 69.5253 1.53084 70.1357 2.66662 70.6966L3.67072 71.208H23.5387C42.5836 71.208 43.4231 71.1915 43.67 70.9111C44.0322 70.5151 44.0157 70.0037 43.6536 69.6738C43.3738 69.4099 41.7606 69.3934 23.7691 69.3934C5.13572 69.3934 4.16454 69.3769 3.53903 69.0799C2.74892 68.717 2.40325 68.3541 2.05758 67.5292C1.84359 67.0013 2 63.7196 2 38.8756C2 16.704 2 10.8142 2 10.5991C2 10.3131 1.5 10.3131 1 10.3131Z" fill="#E63246"></path>
</svg>
